amplitude,frequencia
0,0.000000
1,0.080950
2,0.161527
3,0.241364
4,0.320092
5,0.397350
6,0.472785
7,0.546049
8,0.616807
9,0.684735
10,0.749520
11,0.810867
12,0.868495
13,0.922139
14,0.971556
15,1.016518
16,1.056823
17,1.092285
18,1.122746
19,1.148065
20,1.168130
21,1.182852
22,1.192164
23,1.196027
24,1.194426
25,1.187372
26,1.174900
27,1.157071
28,1.133970
29,1.105706
30,1.072412
31,1.034246
32,0.991385
33,0.944030
34,0.892402
35,0.836741
36,0.777306
37,0.714372
38,0.648233
39,0.579193
40,0.507573
41,0.433705
42,0.357928
43,0.280592
44,0.202055
45,0.122678
46,0.042826
47,-0.037135
48,-0.116836
49,-0.195912
50,-0.274002
51,-0.350748
52,-0.425799
53,-0.498814
54,-0.569459
55,-0.637413
56,-0.702369
57,-0.764031
58,-0.822122
59,-0.876380
60,-0.926561
61,-0.972440
62,-1.013813
63,-1.050498
64,-1.082332
65,-1.109176
66,-1.130916
67,-1.147460
68,-1.158739
69,-1.164711
70,-1.165356
71,-1.160681
72,-1.150716
73,-1.135516
74,-1.115159
75,-1.089747
76,-1.059407
77,-1.024287
78,-0.984555
79,-0.940404
80,-0.892043
81,-0.839703
82,-0.783632
83,-0.724093
84,-0.661367
85,-0.595748
86,-0.527542
87,-0.457069
88,-0.384656
89,-0.310638
90,-0.235360
91,-0.159170
92,-0.082417
93,-0.005457
94,0.071357
95,0.147674
96,0.223145
97,0.297424
98,0.370175
99,0.441066
100,0.509777
101,0.575999
102,0.639432
103,0.699793
104,0.756812
105,0.810237
106,0.859830
107,0.905374
108,0.946671
109,0.983541
110,1.015827
111,1.043393
112,1.066125
113,1.083930
114,1.096742
115,1.104514
116,1.107224
117,1.104875
118,1.097490
119,1.085117
120,1.067828
121,1.045716
122,1.018895
123,0.987503
124,0.951697
125,0.911654
126,0.867570
127,0.819659
128,0.768153
129,0.713299
130,0.655358
131,0.594606
132,0.531331
133,0.465830
134,0.398410
135,0.329388
136,0.259085
137,0.187827
138,0.115944
139,0.043769
140,-0.028368
141,-0.100134
142,-0.171203
143,-0.241251
144,-0.309959
145,-0.377018
146,-0.442125
147,-0.504988
148,-0.565327
149,-0.622874
150,-0.677376
151,-0.728592
152,-0.776299
153,-0.820292
154,-0.860382
155,-0.896399
156,-0.928194
157,-0.955635
158,-0.978613
159,-0.997041
160,-1.010849
161,-1.019992
162,-1.024447
163,-1.024210
164,-1.019302
165,-1.009761
166,-0.995651
167,-0.977054
168,-0.954073
169,-0.926831
170,-0.895469
171,-0.860149
172,-0.821048
173,-0.778361
174,-0.732299
175,-0.683085
176,-0.630961
177,-0.576175
178,-0.518992
179,-0.459683
180,-0.398529
181,-0.335819
182,-0.271846
183,-0.206910
184,-0.141313
185,-0.075359
186,-0.009350
187,0.056409
188,0.121618
189,0.185980
190,0.249205
191,0.311006
192,0.371108
193,0.429243
194,0.485152
195,0.538589
196,0.589322
197,0.637129
198,0.681805
199,0.723160
200,0.761020
201,0.795227
202,0.825643
203,0.852146
204,0.874633
205,0.893020
206,0.907243
207,0.917257
208,0.923037
209,0.924576
210,0.921890
211,0.915011
212,0.903992
213,0.888903
214,0.869836
215,0.846897
216,0.820211
217,0.789920
218,0.756181
219,0.719167
220,0.679064
221,0.636073
222,0.590406
223,0.542285
224,0.491946
225,0.439631
226,0.385589
227,0.330078
228,0.273361
229,0.215705
230,0.157378
231,0.098651
232,0.039798
233,-0.018913
234,-0.077212
235,-0.134834
236,-0.191520
237,-0.247013
238,-0.301067
239,-0.353441
240,-0.403905
241,-0.452238
242,-0.498230
243,-0.541685
244,-0.582416
245,-0.620255
246,-0.655042
247,-0.686637
248,-0.714914
249,-0.739762
250,-0.761087
251,-0.778813
252,-0.792879
253,-0.803243
254,-0.809880
255,-0.812781
256,-0.811955
257,-0.807430
258,-0.799248
259,-0.787469
260,-0.772169
261,-0.753440
262,-0.731389
263,-0.706138
264,-0.677823
265,-0.646592
266,-0.612608
267,-0.576042
268,-0.537080
269,-0.495916
270,-0.452751
271,-0.407798
272,-0.361273
273,-0.313400
274,-0.264408
275,-0.214527
276,-0.163994
277,-0.113044
278,-0.061914
279,-0.010838
280,0.039948
281,0.090214
282,0.139732
283,0.188282
284,0.235645
285,0.281613
286,0.325985
287,0.368568
288,0.409178
289,0.447643
290,0.483801
291,0.517501
292,0.548607
293,0.576993
294,0.602549
295,0.625175
296,0.644790
297,0.661324
298,0.674723
299,0.684948
300,0.691974
301,0.695791
302,0.696406
303,0.693838
304,0.688121
305,0.679304
306,0.667452
307,0.652638
308,0.634954
309,0.614501
310,0.591394
311,0.565757
312,0.537727
313,0.507450
314,0.475082
315,0.440787
316,0.404737
317,0.367109
318,0.328090
319,0.287867
320,0.246635
321,0.204590
322,0.161933
323,0.118862
324,0.075579
325,0.032284
326,-0.010824
327,-0.053549
328,-0.095698
329,-0.137082
330,-0.177516
331,-0.216823
332,-0.254831
333,-0.291377
334,-0.326303
335,-0.359462
336,-0.390716
337,-0.419938
338,-0.447008
339,-0.471820
340,-0.494278
341,-0.514299
342,-0.531809
343,-0.546749
344,-0.559070
345,-0.568739
346,-0.575732
347,-0.580038
348,-0.581661
349,-0.580614
350,-0.576925
351,-0.570632
352,-0.561787
353,-0.550450
354,-0.536694
355,-0.520604
356,-0.502272
357,-0.481801
358,-0.459304
359,-0.434900
360,-0.408719
361,-0.380895
362,-0.351570
363,-0.320891
364,-0.289012
365,-0.256088
366,-0.222280
367,-0.187751
368,-0.152665
369,-0.117188
370,-0.081487
371,-0.045727
372,-0.010073
373,0.025312
374,0.060268
375,0.094638
376,0.128270
377,0.161017
378,0.192734
379,0.223287
380,0.252546
381,0.280387
382,0.306695
383,0.331364
384,0.354296
385,0.375400
386,0.394596
387,0.411814
388,0.426993
389,0.440082
390,0.451039
391,0.459835
392,0.466448
393,0.470870
394,0.473099
395,0.473145
396,0.471030
397,0.466783
398,0.460444
399,0.452061
400,0.441692
401,0.429403
402,0.415270
403,0.399374
404,0.381805
405,0.362661
406,0.342043
407,0.320062
408,0.296830
409,0.272467
410,0.247095
411,0.220841
412,0.193834
413,0.166205
414,0.138088
415,0.109616
416,0.080923
417,0.052143
418,0.023410
419,-0.005145
420,-0.033392
421,-0.061206
422,-0.088462
423,-0.115041
424,-0.140828
425,-0.165711
426,-0.189587
427,-0.212355
428,-0.233921
429,-0.254200
430,-0.273110
431,-0.290579
432,-0.306542
433,-0.320940
434,-0.333723
435,-0.344849
436,-0.354284
437,-0.362002
438,-0.367985
439,-0.372225
440,-0.374718
441,-0.375473
442,-0.374503
443,-0.371832
444,-0.367488
445,-0.361511
446,-0.353944
447,-0.344839
448,-0.334254
449,-0.322253
450,-0.308907
451,-0.294291
452,-0.278486
453,-0.261577
454,-0.243653
455,-0.224809
456,-0.205140
457,-0.184745
458,-0.163727
459,-0.142189
460,-0.120235
461,-0.097970
462,-0.075501
463,-0.052933
464,-0.030370
465,-0.007917
466,0.014325
467,0.036255
468,0.057777
469,0.078796
470,0.099221
471,0.118965
472,0.137944
473,0.156079
474,0.173298
475,0.189530
476,0.204713
477,0.218788
478,0.231703
479,0.243412
480,0.253874
481,0.263057
482,0.270931
483,0.277476
484,0.282676
485,0.286524
486,0.289017
487,0.290159
488,0.289961
489,0.288438
490,0.285613
491,0.281515
492,0.276176
493,0.269636
494,0.261938
495,0.253133
496,0.243272
497,0.232414
498,0.220621
499,0.207957
500,0.194492
501,0.180296
502,0.165444
503,0.150011
504,0.134076
505,0.117717
506,0.101016
507,0.084053
508,0.066908
509,0.049664
510,0.032401
511,0.015198
512,-0.001866
513,-0.018715
514,-0.035273
515,-0.051468
516,-0.067230
517,-0.082491
518,-0.097188
519,-0.111260
520,-0.124649
521,-0.137303
522,-0.149172
523,-0.160211
524,-0.170380
525,-0.179642
526,-0.187968
527,-0.195328
528,-0.201703
529,-0.207074
530,-0.211430
531,-0.214763
532,-0.217071
533,-0.218356
534,-0.218625
535,-0.217889
536,-0.216165
537,-0.213473
538,-0.209838
539,-0.205288
540,-0.199856
541,-0.193578
542,-0.186495
543,-0.178648
544,-0.170083
545,-0.160851
546,-0.151000
547,-0.140586
548,-0.129662
549,-0.118287
550,-0.106517
551,-0.094413
552,-0.082034
553,-0.069442
554,-0.056696
555,-0.043858
556,-0.030988
557,-0.018145
558,-0.005388
559,0.007224
560,0.019637
561,0.031795
562,0.043646
563,0.055139
564,0.066226
565,0.076861
566,0.087002
567,0.096609
568,0.105644
569,0.114073
570,0.121866
571,0.128995
572,0.135437
573,0.141171
574,0.146180
575,0.150451
576,0.153974
577,0.156743
578,0.158756
579,0.160014
580,0.160522
581,0.160286
582,0.159319
583,0.157636
584,0.155252
585,0.152190
586,0.148473
587,0.144127
588,0.139180
589,0.133664
590,0.127612
591,0.121060
592,0.114044
593,0.106604
594,0.098779
595,0.090612
596,0.082144
597,0.073418
598,0.064480
599,0.055372
600,0.046140
601,0.036827
602,0.027477
603,0.018135
604,0.008843
605,-0.000356
606,-0.009423
607,-0.018316
608,-0.026997
609,-0.035429
610,-0.043578
611,-0.051409
612,-0.058890
613,-0.065994
614,-0.072691
615,-0.078958
616,-0.084771
617,-0.090110
618,-0.094959
619,-0.099300
620,-0.103122
621,-0.106416
622,-0.109172
623,-0.111387
624,-0.113058
625,-0.114186
626,-0.114773
627,-0.114824
628,-0.114348
629,-0.113354
630,-0.111855
631,-0.109865
632,-0.107400
633,-0.104479
634,-0.101122
635,-0.097352
636,-0.093191
637,-0.088666
638,-0.083801
639,-0.078625
640,-0.073167
641,-0.067455
642,-0.061520
643,-0.055393
644,-0.049105
645,-0.042687
646,-0.036171
647,-0.029588
648,-0.022971
649,-0.016349
650,-0.009754
651,-0.003216
652,0.003236
653,0.009574
654,0.015770
655,0.021798
656,0.027633
657,0.033249
658,0.038626
659,0.043742
660,0.048577
661,0.053114
662,0.057335
663,0.061227
664,0.064777
665,0.067973
666,0.070807
667,0.073271
668,0.075360
669,0.077069
670,0.078397
671,0.079344
672,0.079911
673,0.080102
674,0.079922
675,0.079378
676,0.078477
677,0.077230
678,0.075648
679,0.073744
680,0.071532
681,0.069026
682,0.066244
683,0.063202
684,0.059918
685,0.056413
686,0.052704
687,0.048814
688,0.044762
689,0.040571
690,0.036261
691,0.031855
692,0.027375
693,0.022842
694,0.018278
695,0.013705
696,0.009144
697,0.004616
698,0.000142
699,-0.004259
700,-0.008568
701,-0.012766
702,-0.016836
703,-0.020761
704,-0.024525
705,-0.028114
706,-0.031514
707,-0.034712
708,-0.037696
709,-0.040458
710,-0.042987
711,-0.045276
712,-0.047318
713,-0.049108
714,-0.050642
715,-0.051917
716,-0.052931
717,-0.053685
718,-0.054179
719,-0.054416
720,-0.054398
721,-0.054130
722,-0.053617
723,-0.052866
724,-0.051885
725,-0.050682
726,-0.049267
727,-0.047649
728,-0.045839
729,-0.043849
730,-0.041692
731,-0.039381
732,-0.036927
733,-0.034347
734,-0.031653
735,-0.028860
736,-0.025982
737,-0.023035
738,-0.020033
739,-0.016992
740,-0.013925
741,-0.010848
742,-0.007775
743,-0.004719
744,-0.001696
745,0.001282
746,0.004201
747,0.007050
748,0.009816
749,0.012488
750,0.015055
751,0.017508
752,0.019836
753,0.022031
754,0.024086
755,0.025993
756,0.027747
757,0.029341
758,0.030771
759,0.032035
760,0.033128
761,0.034048
762,0.034795
763,0.035369
764,0.035769
765,0.035997
766,0.036055
767,0.035946
768,0.035673
769,0.035241
770,0.034654
771,0.033918
772,0.033039
773,0.032023
774,0.030879
775,0.029613
776,0.028234
777,0.026750
778,0.025170
779,0.023503
780,0.021758
781,0.019945
782,0.018074
783,0.016154
784,0.014194
785,0.012206
786,0.010198
787,0.008180
788,0.006163
789,0.004154
790,0.002163
791,0.000200
792,-0.001727
793,-0.003611
794,-0.005442
795,-0.007215
796,-0.008920
797,-0.010552
798,-0.012105
799,-0.013573
800,-0.014951
801,-0.016233
802,-0.017416
803,-0.018497
804,-0.019472
805,-0.020338
806,-0.021094
807,-0.021738
808,-0.022270
809,-0.022688
810,-0.022994
811,-0.023188
812,-0.023271
813,-0.023245
814,-0.023113
815,-0.022876
816,-0.022538
817,-0.022103
818,-0.021574
819,-0.020955
820,-0.020252
821,-0.019469
822,-0.018611
823,-0.017683
824,-0.016692
825,-0.015644
826,-0.014543
827,-0.013397
828,-0.012211
829,-0.010992
830,-0.009746
831,-0.008480
832,-0.007199
833,-0.005910
834,-0.004619
835,-0.003332
836,-0.002055
837,-0.000794
838,0.000446
839,0.001659
840,0.002841
841,0.003986
842,0.005090
843,0.006148
844,0.007157
845,0.008113
846,0.009012
847,0.009852
848,0.010629
849,0.011342
850,0.011988
851,0.012565
852,0.013073
853,0.013510
854,0.013876
855,0.014170
856,0.014393
857,0.014545
858,0.014626
859,0.014639
860,0.014583
861,0.014461
862,0.014274
863,0.014026
864,0.013717
865,0.013351
866,0.012931
867,0.012460
868,0.011941
869,0.011377
870,0.010772
871,0.010130
872,0.009454
873,0.008748
874,0.008016
875,0.007262
876,0.006490
877,0.005705
878,0.004908
879,0.004106
880,0.003301
881,0.002498
882,0.001700
883,0.000911
884,0.000134
885,-0.000628
886,-0.001371
887,-0.002092
888,-0.002788
889,-0.003456
890,-0.004095
891,-0.004701
892,-0.005273
893,-0.005808
894,-0.006305
895,-0.006763
896,-0.007179
897,-0.007553
898,-0.007885
899,-0.008173
900,-0.008417
901,-0.008616
902,-0.008772
903,-0.008884
904,-0.008952
905,-0.008977
906,-0.008960
907,-0.008902
908,-0.008804
909,-0.008667
910,-0.008493
911,-0.008283
912,-0.008040
913,-0.007764
914,-0.007458
915,-0.007125
916,-0.006765
917,-0.006382
918,-0.005978
919,-0.005554
920,-0.005115
921,-0.004660
922,-0.004195
923,-0.003719
924,-0.003237
925,-0.002751
926,-0.002262
927,-0.001774
928,-0.001287
929,-0.000806
930,-0.000331
931,0.000134
932,0.000589
933,0.001031
934,0.001459
935,0.001871
936,0.002264
937,0.002639
938,0.002993
939,0.003325
940,0.003635
941,0.003920
942,0.004182
943,0.004418
944,0.004628
945,0.004812
946,0.004970
947,0.005101
948,0.005205
949,0.005283
950,0.005335
951,0.005361
952,0.005361
953,0.005336
954,0.005288
955,0.005215
956,0.005120
957,0.005004
958,0.004867
959,0.004710
960,0.004535
961,0.004343
962,0.004135
963,0.003913
964,0.003677
965,0.003430
966,0.003172
967,0.002906
968,0.002632
969,0.002352
970,0.002068
971,0.001780
972,0.001491
973,0.001202
974,0.000913
975,0.000627
976,0.000345
977,0.000067
978,-0.000204
979,-0.000469
980,-0.000725
981,-0.000971
982,-0.001208
983,-0.001433
984,-0.001647
985,-0.001848
986,-0.002035
987,-0.002209
988,-0.002368
989,-0.002513
990,-0.002643
991,-0.002757
992,-0.002856
993,-0.002940
994,-0.003007
995,-0.003059
996,-0.003096
997,-0.003117
998,-0.003124
999,-0.003115
1000,-0.003093
1001,-0.003056
1002,-0.003006
1003,-0.002944
1004,-0.002869
1005,-0.002782
1006,-0.002685
1007,-0.002577
1008,-0.002460
1009,-0.002335
1010,-0.002201
1011,-0.002060
1012,-0.001913
1013,-0.001761
1014,-0.001604
1015,-0.001444
1016,-0.001280
1017,-0.001115
1018,-0.000948
1019,-0.000781
1020,-0.000614
1021,-0.000448
1022,-0.000285
1023,-0.000123
1024,0.000000
1025,0.000000
1026,0.000000
1027,0.000000
1028,0.000000
1029,0.000000
1030,0.000000
1031,0.000000
1032,0.000000
1033,0.000000
1034,0.000000
1035,0.000000
1036,0.000000
1037,0.000000
1038,0.000000
1039,0.000000
1040,0.000000
1041,0.000000
1042,0.000000
1043,0.000000
1044,0.000000
1045,0.000000
1046,0.000000
1047,0.000000
1048,0.000000
1049,0.000000
1050,0.000000
1051,0.000000
1052,0.000000
1053,0.000000
1054,0.000000
1055,0.000000
1056,0.000000
1057,0.000000
1058,0.000000
1059,0.000000
1060,0.000000
1061,0.000000
1062,0.000000
1063,0.000000
1064,0.000000
1065,0.000000
1066,0.000000
1067,0.000000
1068,0.000000
1069,0.000000
1070,0.000000
1071,0.000000
1072,0.000000
1073,0.000000
1074,0.000000
1075,0.000000
1076,0.000000
1077,0.000000
1078,0.000000
1079,0.000000
1080,0.000000
1081,0.000000
1082,0.000000
1083,0.000000
1084,0.000000
1085,0.000000
1086,0.000000
1087,0.000000
1088,0.000000
1089,0.000000
1090,0.000000
1091,0.000000
1092,0.000000
1093,0.000000
1094,0.000000
1095,0.000000
1096,0.000000
1097,0.000000
1098,0.000000
1099,0.000000
1100,0.000000
1101,0.000000
1102,0.000000
1103,0.000000
1104,0.000000
1105,0.000000
1106,0.000000
1107,0.000000
1108,0.000000
1109,0.000000
1110,0.000000
1111,0.000000
1112,0.000000
1113,0.000000
1114,0.000000
1115,0.000000
1116,0.000000
1117,0.000000
1118,0.000000
1119,0.000000
1120,0.000000
1121,0.000000
1122,0.000000
1123,0.000000
1124,0.000000
1125,0.000000
1126,0.000000
1127,0.000000
1128,0.000000
1129,0.000000
1130,0.000000
1131,0.000000
1132,0.000000
1133,0.000000
1134,0.000000
1135,0.000000
1136,0.000000
1137,0.000000
1138,0.000000
1139,0.000000
1140,0.000000
1141,0.000000
1142,0.000000
1143,0.000000
1144,0.000000
1145,0.000000
1146,0.000000
1147,0.000000
1148,0.000000
1149,0.000000
1150,0.000000
1151,0.000000
1152,0.000000
1153,0.000000
1154,0.000000
1155,0.000000
1156,0.000000
1157,0.000000
1158,0.000000
1159,0.000000
1160,0.000000
1161,0.000000
1162,0.000000
1163,0.000000
1164,0.000000
1165,0.000000
1166,0.000000
1167,0.000000
1168,0.000000
1169,0.000000
1170,0.000000
1171,0.000000
1172,0.000000
1173,0.000000
1174,0.000000
1175,0.000000
1176,0.000000
1177,0.000000
1178,0.000000
1179,0.000000
1180,0.000000
1181,0.000000
1182,0.000000
1183,0.000000
1184,0.000000
1185,0.000000
1186,0.000000
1187,0.000000
1188,0.000000
1189,0.000000
1190,0.000000
1191,0.000000
1192,0.000000
1193,0.000000
1194,0.000000
1195,0.000000
1196,0.000000
1197,0.000000
1198,0.000000
1199,0.000000
1200,0.000000
1201,0.000000
1202,0.000000
1203,0.000000
1204,0.000000
1205,0.000000
1206,0.000000
1207,0.000000
1208,0.000000
1209,0.000000
1210,0.000000
1211,0.000000
1212,0.000000
1213,0.000000
1214,0.000000
1215,0.000000
1216,0.000000
1217,0.000000
1218,0.000000
1219,0.000000
1220,0.000000
1221,0.000000
1222,0.000000
1223,0.000000
1224,0.000000
1225,0.000000
1226,0.000000
1227,0.000000
1228,0.000000
1229,0.000000
1230,0.000000
1231,0.000000
1232,0.000000
1233,0.000000
1234,0.000000
1235,0.000000
1236,0.000000
1237,0.000000
1238,0.000000
1239,0.000000
1240,0.000000
1241,0.000000
1242,0.000000
1243,0.000000
1244,0.000000
1245,0.000000
1246,0.000000
1247,0.000000
1248,0.000000
1249,0.000000
1250,0.000000
1251,0.000000
1252,0.000000
1253,0.000000
1254,0.000000
1255,0.000000
1256,0.000000
1257,0.000000
1258,0.000000
1259,0.000000
1260,0.000000
1261,0.000000
1262,0.000000
1263,0.000000
1264,0.000000
1265,0.000000
1266,0.000000
1267,0.000000
1268,0.000000
1269,0.000000
1270,0.000000
1271,0.000000
1272,0.000000
1273,0.000000
1274,0.000000
1275,0.000000
1276,0.000000
1277,0.000000
1278,0.000000
1279,0.000000
1280,0.000000
1281,0.000000
1282,0.000000
1283,0.000000
1284,0.000000
1285,0.000000
1286,0.000000
1287,0.000000
1288,0.000000
1289,0.000000
1290,0.000000
1291,0.000000
1292,0.000000
1293,0.000000
1294,0.000000
1295,0.000000
1296,0.000000
1297,0.000000
1298,0.000000
1299,0.000000
1300,0.000000
1301,0.000000
1302,0.000000
1303,0.000000
1304,0.000000
1305,0.000000
1306,0.000000
1307,0.000000
1308,0.000000
1309,0.000000
1310,0.000000
1311,0.000000
1312,0.000000
1313,0.000000
1314,0.000000
1315,0.000000
1316,0.000000
1317,0.000000
1318,0.000000
1319,0.000000
1320,0.000000
1321,0.000000
1322,0.000000
1323,0.000000
1324,0.000000
1325,0.000000
1326,0.000000
1327,0.000000
1328,0.000000
1329,0.000000
1330,0.000000
1331,0.000000
1332,0.000000
1333,0.000000
1334,0.000000
1335,0.000000
1336,0.000000
1337,0.000000
1338,0.000000
1339,0.000000
1340,0.000000
1341,0.000000
1342,0.000000
1343,0.000000
1344,0.000000
1345,0.000000
1346,0.000000
1347,0.000000
1348,0.000000
1349,0.000000
1350,0.000000
1351,0.000000
1352,0.000000
1353,0.000000
1354,0.000000
1355,0.000000
1356,0.000000
1357,0.000000
1358,0.000000
1359,0.000000
1360,0.000000
1361,0.000000
1362,0.000000
1363,0.000000
1364,0.000000
1365,0.000000
1366,0.000000
1367,0.000000
1368,0.000000
1369,0.000000
1370,0.000000
1371,0.000000
1372,0.000000
1373,0.000000
1374,0.000000
1375,0.000000
1376,0.000000
1377,0.000000
1378,0.000000
1379,0.000000
1380,0.000000
1381,0.000000
1382,0.000000
1383,0.000000
1384,0.000000
1385,0.000000
1386,0.000000
1387,0.000000
1388,0.000000
1389,0.000000
1390,0.000000
1391,0.000000
1392,0.000000
1393,0.000000
1394,0.000000
1395,0.000000
1396,0.000000
1397,0.000000
1398,0.000000
1399,0.000000
1400,0.000000
1401,0.000000
1402,0.000000
1403,0.000000
1404,0.000000
1405,0.000000
1406,0.000000
1407,0.000000
1408,0.000000
1409,0.000000
1410,0.000000
1411,0.000000
1412,0.000000
1413,0.000000
1414,0.000000
1415,0.000000
1416,0.000000
1417,0.000000
1418,0.000000
1419,0.000000
1420,0.000000
1421,0.000000
1422,0.000000
1423,0.000000
1424,0.000000
1425,0.000000
1426,0.000000
1427,0.000000
1428,0.000000
1429,0.000000
1430,0.000000
1431,0.000000
1432,0.000000
1433,0.000000
1434,0.000000
1435,0.000000
1436,0.000000
1437,0.000000
1438,0.000000
1439,0.000000
1440,0.000000
1441,0.000000
1442,0.000000
1443,0.000000
1444,0.000000
1445,0.000000
1446,0.000000
1447,0.000000
1448,0.000000
1449,0.000000
1450,0.000000
1451,0.000000
1452,0.000000
1453,0.000000
1454,0.000000
1455,0.000000
1456,0.000000
1457,0.000000
1458,0.000000
1459,0.000000
1460,0.000000
1461,0.000000
1462,0.000000
1463,0.000000
1464,0.000000
1465,0.000000
1466,0.000000
1467,0.000000
1468,0.000000
1469,0.000000
1470,0.000000
1471,0.000000
1472,0.000000
1473,0.000000
1474,0.000000
1475,0.000000
1476,0.000000
1477,0.000000
1478,0.000000
1479,0.000000
1480,0.000000
1481,0.000000
1482,0.000000
1483,0.000000
1484,0.000000
1485,0.000000
1486,0.000000
1487,0.000000
1488,0.000000
1489,0.000000
1490,0.000000
1491,0.000000
1492,0.000000
1493,0.000000
1494,0.000000
1495,0.000000
1496,0.000000
1497,0.000000
1498,0.000000
1499,0.000000
1500,0.000000
1501,0.000000
1502,0.000000
1503,0.000000
1504,0.000000
1505,0.000000
1506,0.000000
1507,0.000000
1508,0.000000
1509,0.000000
1510,0.000000
1511,0.000000
1512,0.000000
1513,0.000000
1514,0.000000
1515,0.000000
1516,0.000000
1517,0.000000
1518,0.000000
1519,0.000000
1520,0.000000
1521,0.000000
1522,0.000000
1523,0.000000
1524,0.000000
1525,0.000000
1526,0.000000
1527,0.000000
1528,0.000000
1529,0.000000
1530,0.000000
1531,0.000000
1532,0.000000
1533,0.000000
1534,0.000000
1535,0.000000
1536,0.000000
1537,0.000000
1538,0.000000
1539,0.000000
1540,0.000000
1541,0.000000
1542,0.000000
1543,0.000000
1544,0.000000
1545,0.000000
1546,0.000000
1547,0.000000
1548,0.000000
1549,0.000000
1550,0.000000
1551,0.000000
1552,0.000000
1553,0.000000
1554,0.000000
1555,0.000000
1556,0.000000
1557,0.000000
1558,0.000000
1559,0.000000
1560,0.000000
1561,0.000000
1562,0.000000
1563,0.000000
1564,0.000000
1565,0.000000
1566,0.000000
1567,0.000000
1568,0.000000
1569,0.000000
1570,0.000000
1571,0.000000
1572,0.000000
1573,0.000000
1574,0.000000
1575,0.000000
1576,0.000000
1577,0.000000
1578,0.000000
1579,0.000000
1580,0.000000
1581,0.000000
1582,0.000000
1583,0.000000
1584,0.000000
1585,0.000000
1586,0.000000
1587,0.000000
1588,0.000000
1589,0.000000
1590,0.000000
1591,0.000000
1592,0.000000
1593,0.000000
1594,0.000000
1595,0.000000
1596,0.000000
1597,0.000000
1598,0.000000
1599,0.000000
1600,0.000000
1601,0.000000
1602,0.000000
1603,0.000000
1604,0.000000
1605,0.000000
1606,0.000000
1607,0.000000
1608,0.000000
1609,0.000000
1610,0.000000
1611,0.000000
1612,0.000000
1613,0.000000
1614,0.000000
1615,0.000000
1616,0.000000
1617,0.000000
1618,0.000000
1619,0.000000
1620,0.000000
1621,0.000000
1622,0.000000
1623,0.000000
1624,0.000000
1625,0.000000
1626,0.000000
1627,0.000000
1628,0.000000
1629,0.000000
1630,0.000000
1631,0.000000
1632,0.000000
1633,0.000000
1634,0.000000
1635,0.000000
1636,0.000000
1637,0.000000
1638,0.000000
1639,0.000000
1640,0.000000
1641,0.000000
1642,0.000000
1643,0.000000
1644,0.000000
1645,0.000000
1646,0.000000
1647,0.000000
1648,0.000000
1649,0.000000
1650,0.000000
1651,0.000000
1652,0.000000
1653,0.000000
1654,0.000000
1655,0.000000
1656,0.000000
1657,0.000000
1658,0.000000
1659,0.000000
1660,0.000000
1661,0.000000
1662,0.000000
1663,0.000000
1664,0.000000
1665,0.000000
1666,0.000000
1667,0.000000
1668,0.000000
1669,0.000000
1670,0.000000
1671,0.000000
1672,0.000000
1673,0.000000
1674,0.000000
1675,0.000000
1676,0.000000
1677,0.000000
1678,0.000000
1679,0.000000
1680,0.000000
1681,0.000000
1682,0.000000
1683,0.000000
1684,0.000000
1685,0.000000
1686,0.000000
1687,0.000000
1688,0.000000
1689,0.000000
1690,0.000000
1691,0.000000
1692,0.000000
1693,0.000000
1694,0.000000
1695,0.000000
1696,0.000000
1697,0.000000
1698,0.000000
1699,0.000000
1700,0.000000
1701,0.000000
1702,0.000000
1703,0.000000
1704,0.000000
1705,0.000000
1706,0.000000
1707,0.000000
1708,0.000000
1709,0.000000
1710,0.000000
1711,0.000000
1712,0.000000
1713,0.000000
1714,0.000000
1715,0.000000
1716,0.000000
1717,0.000000
1718,0.000000
1719,0.000000
1720,0.000000
1721,0.000000
1722,0.000000
1723,0.000000
1724,0.000000
1725,0.000000
1726,0.000000
1727,0.000000
1728,0.000000
1729,0.000000
1730,0.000000
1731,0.000000
1732,0.000000
1733,0.000000
1734,0.000000
1735,0.000000
1736,0.000000
1737,0.000000
1738,0.000000
1739,0.000000
1740,0.000000
1741,0.000000
1742,0.000000
1743,0.000000
1744,0.000000
1745,0.000000
1746,0.000000
1747,0.000000
1748,0.000000
1749,0.000000
1750,0.000000
1751,0.000000
1752,0.000000
1753,0.000000
1754,0.000000
1755,0.000000
1756,0.000000
1757,0.000000
1758,0.000000
1759,0.000000
1760,0.000000
1761,0.000000
1762,0.000000
1763,0.000000
1764,0.000000
1765,0.000000
1766,0.000000
1767,0.000000
1768,0.000000
1769,0.000000
1770,0.000000
1771,0.000000
1772,0.000000
1773,0.000000
1774,0.000000
1775,0.000000
1776,0.000000
1777,0.000000
1778,0.000000
1779,0.000000
1780,0.000000
1781,0.000000
1782,0.000000
1783,0.000000
1784,0.000000
1785,0.000000
1786,0.000000
1787,0.000000
1788,0.000000
1789,0.000000
1790,0.000000
1791,0.000000
1792,0.000000
1793,0.000000
1794,0.000000
1795,0.000000
1796,0.000000
1797,0.000000
1798,0.000000
1799,0.000000
1800,0.000000
1801,0.000000
1802,0.000000
1803,0.000000
1804,0.000000
1805,0.000000
1806,0.000000
1807,0.000000
1808,0.000000
1809,0.000000
1810,0.000000
1811,0.000000
1812,0.000000
1813,0.000000
1814,0.000000
1815,0.000000
1816,0.000000
1817,0.000000
1818,0.000000
1819,0.000000
1820,0.000000
1821,0.000000
1822,0.000000
1823,0.000000
1824,0.000000
1825,0.000000
1826,0.000000
1827,0.000000
1828,0.000000
1829,0.000000
1830,0.000000
1831,0.000000
1832,0.000000
1833,0.000000
1834,0.000000
1835,0.000000
1836,0.000000
1837,0.000000
1838,0.000000
1839,0.000000
1840,0.000000
1841,0.000000
1842,0.000000
1843,0.000000
1844,0.000000
1845,0.000000
1846,0.000000
1847,0.000000
1848,0.000000
1849,0.000000
1850,0.000000
1851,0.000000
1852,0.000000
1853,0.000000
1854,0.000000
1855,0.000000
1856,0.000000
1857,0.000000
1858,0.000000
1859,0.000000
1860,0.000000
1861,0.000000
1862,0.000000
1863,0.000000
1864,0.000000
1865,0.000000
1866,0.000000
1867,0.000000
1868,0.000000
1869,0.000000
1870,0.000000
1871,0.000000
1872,0.000000
1873,0.000000
1874,0.000000
1875,0.000000
1876,0.000000
1877,0.000000
1878,0.000000
1879,0.000000
1880,0.000000
1881,0.000000
1882,0.000000
1883,0.000000
1884,0.000000
1885,0.000000
1886,0.000000
1887,0.000000
1888,0.000000
1889,0.000000
1890,0.000000
1891,0.000000
1892,0.000000
1893,0.000000
1894,0.000000
1895,0.000000
1896,0.000000
1897,0.000000
1898,0.000000
1899,0.000000
1900,0.000000
1901,0.000000
1902,0.000000
1903,0.000000
1904,0.000000
1905,0.000000
1906,0.000000
1907,0.000000
1908,0.000000
1909,0.000000
1910,0.000000
1911,0.000000
1912,0.000000
1913,0.000000
1914,0.000000
1915,0.000000
1916,0.000000
1917,0.000000
1918,0.000000
1919,0.000000
1920,0.000000
1921,0.000000
1922,0.000000
1923,0.000000
1924,0.000000
1925,0.000000
1926,0.000000
1927,0.000000
1928,0.000000
1929,0.000000
1930,0.000000
1931,0.000000
1932,0.000000
1933,0.000000
1934,0.000000
1935,0.000000
1936,0.000000
1937,0.000000
1938,0.000000
1939,0.000000
1940,0.000000
1941,0.000000
1942,0.000000
1943,0.000000
1944,0.000000
1945,0.000000
1946,0.000000
1947,0.000000
1948,0.000000
1949,0.000000
1950,0.000000
1951,0.000000
1952,0.000000
1953,0.000000
1954,0.000000
1955,0.000000
1956,0.000000
1957,0.000000
1958,0.000000
1959,0.000000
1960,0.000000
1961,0.000000
1962,0.000000
1963,0.000000
1964,0.000000
1965,0.000000
1966,0.000000
1967,0.000000
1968,0.000000
1969,0.000000
1970,0.000000
1971,0.000000
1972,0.000000
1973,0.000000
1974,0.000000
1975,0.000000
1976,0.000000
1977,0.000000
1978,0.000000
1979,0.000000
1980,0.000000
1981,0.000000
1982,0.000000
1983,0.000000
1984,0.000000
1985,0.000000
1986,0.000000
1987,0.000000
1988,0.000000
1989,0.000000
1990,0.000000
1991,0.000000
1992,0.000000
1993,0.000000
1994,0.000000
1995,0.000000
1996,0.000000
1997,0.000000
1998,0.000000
1999,0.000000
2000,0.000000
2001,0.000000
2002,0.000000
2003,0.000000
2004,0.000000
2005,0.000000
2006,0.000000
2007,0.000000
2008,0.000000
2009,0.000000
2010,0.000000
2011,0.000000
2012,0.000000
2013,0.000000
2014,0.000000
2015,0.000000
2016,0.000000
2017,0.000000
2018,0.000000
2019,0.000000
2020,0.000000
2021,0.000000
2022,0.000000
2023,0.000000
2024,0.000000
2025,0.000000
2026,0.000000
2027,0.000000
2028,0.000000
2029,0.000000
2030,0.000000
2031,0.000000
2032,0.000000
2033,0.000000
2034,0.000000
2035,0.000000
2036,0.000000
2037,0.000000
2038,0.000000
2039,0.000000
2040,0.000000
2041,0.000000
2042,0.000000
2043,0.000000
2044,0.000000
2045,0.000000
2046,0.000000
2047,0.000000
2048,-0.057301
2049,-0.186648
2050,-0.312825
2051,-0.433688
2052,-0.547186
2053,-0.651390
2054,-0.744530
2055,-0.825025
2056,-0.891508
2057,-0.942849
2058,-0.978177
2059,-0.996890
2060,-0.998672
2061,-0.983493
2062,-0.951609
2063,-0.903563
2064,-0.840171
2065,-0.762509
2066,-0.671896
2067,-0.569871
2068,-0.458168
2069,-0.338683
2070,-0.213445
2071,-0.084583
2072,0.045717
2073,0.175239
2074,0.301786
2075,0.423207
2076,0.537440
2077,0.642545
2078,0.736736
2079,0.818415
2080,0.886193
2081,0.938920
2082,0.975701
2083,0.995909
2084,0.999203
2085,0.985526
2086,0.955110
2087,0.908472
2088,0.846405
2089,0.769962
2090,0.680442
2091,0.579365
2092,0.468448
2093,0.349574
2094,0.224763
2095,0.096135
2096,-0.034126
2097,-0.163807
2098,-0.290707
2099,-0.412669
2100,-0.527621
2101,-0.633613
2102,-0.728843
2103,-0.811694
2104,-0.880759
2105,-0.934865
2106,-0.973093
2107,-0.994794
2108,-0.999599
2109,-0.987426
2110,-0.958482
2111,-0.913259
2112,-0.852526
2113,-0.777312
2114,-0.688896
2115,-0.588780
2116,-0.478664
2117,-0.360418
2118,-0.236051
2119,-0.107675
2120,0.022531
2121,0.152353
2122,0.279588
2123,0.402075
2124,0.517732
2125,0.624596
2126,0.720852
2127,0.804865
2128,0.875207
2129,0.930685
2130,0.970355
2131,0.993545
2132,0.999860
2133,0.989193
2134,0.961725
2135,0.917923
2136,0.858531
2137,0.784557
2138,0.697258
2139,0.598117
2140,0.488817
2141,0.371214
2142,0.247307
2143,0.119200
2144,-0.010932
2145,-0.140879
2146,-0.268432
2147,-0.391427
2148,-0.507773
2149,-0.615496
2150,-0.712764
2151,-0.797926
2152,-0.869537
2153,-0.926379
2154,-0.967486
2155,-0.992162
2156,-0.999987
2157,-0.990827
2158,-0.964839
2159,-0.922464
2160,-0.864421
2161,-0.791697
2162,-0.705526
2163,-0.607373
2164,-0.498903
2165,-0.381960
2166,-0.258530
2167,-0.130709
2168,-0.000667
2169,0.129385
2170,0.257240
2171,0.380726
2172,0.497746
2173,0.606312
2174,0.704580
2175,0.790881
2176,0.863750
2177,0.921948
2178,0.964488
2179,0.990646
2180,0.999979
2181,0.992328
2182,0.967823
2183,0.926880
2184,0.870195
2185,0.798730
2186,0.713699
2187,0.616547
2188,0.508923
2189,0.392655
2190,0.269718
2191,0.142200
2192,0.012267
2193,-0.117874
2194,-0.246014
2195,-0.369975
2196,-0.487652
2197,-0.597047
2198,-0.696301
2199,-0.783729
2200,-0.857846
2201,-0.917393
2202,-0.961359
2203,-0.988997
2204,-0.999837
2205,-0.993695
2206,-0.970677
2207,-0.931172
2208,-0.875852
2209,-0.805656
2210,-0.721776
2211,-0.625638
2212,-0.518874
2213,-0.403296
2214,-0.280869
2215,-0.153672
2216,-0.023865
2217,0.106348
2218,0.234754
2219,0.359173
2220,0.477492
2221,0.587701
2222,0.687928
2223,0.776472
2224,0.851827
2225,0.912715
2226,0.958101
2227,0.987214
2228,0.999560
2229,0.994929
2230,0.973400
2231,0.935338
2232,0.881391
2233,0.812473
2234,0.729756
2235,0.634645
2236,0.528755
2237,0.413884
2238,0.291983
2239,0.165124
2240,0.035460
2241,-0.094807
2242,-0.223463
2243,-0.348323
2244,-0.467268
2245,-0.578277
2246,-0.679463
2247,-0.769110
2248,-0.845694
2249,-0.907914
2250,-0.954714
2251,-0.985299
2252,-0.999149
2253,-0.996029
2254,-0.975992
2255,-0.939379
2256,-0.886811
2257,-0.819181
2258,-0.737638
2259,-0.643567
2260,-0.538565
2261,-0.424416
2262,-0.303058
2263,-0.176553
2264,-0.047050
2265,0.083253
2266,0.212141
2267,0.337427
2268,0.456981
2269,0.568774
2270,0.670907
2271,0.761645
2272,0.839446
2273,0.902991
2274,0.951198
2275,0.983251
2276,0.998603
2277,0.996995
2278,0.978453
2279,0.943293
2280,0.892112
2281,0.825779
2282,0.745420
2283,0.652402
2284,0.548302
2285,0.434890
2286,0.314092
2287,0.187959
2288,0.058634
2289,-0.071688
2290,-0.200791
2291,-0.326485
2292,-0.446633
2293,-0.559195
2294,-0.662260
2295,-0.754077
2296,-0.833086
2297,-0.897946
2298,-0.947555
2299,-0.981070
2300,-0.997923
2301,-0.997826
2302,-0.980782
2303,-0.947080
2304,-0.897293
2305,-0.832265
2306,-0.753103
2307,-0.661149
2308,-0.557966
2309,-0.445306
2310,-0.325083
2311,-0.199339
2312,-0.070209
2313,0.060113
2314,0.189414
2315,0.315498
2316,0.436224
2317,0.549541
2318,0.653524
2319,0.746408
2320,0.826614
2321,0.892781
2322,0.943784
2323,0.978758
2324,0.997108
2325,0.998523
2326,0.982979
2327,0.950740
2328,0.902353
2329,0.838640
2330,0.760683
2331,0.669807
2332,0.567555
2333,0.455662
2334,0.336031
2335,0.210693
2336,0.081776
2337,-0.048530
2338,-0.178012
2339,-0.304470
2340,-0.425757
2341,-0.539813
2342,-0.644700
2343,-0.738638
2344,-0.820030
2345,-0.887495
2346,-0.939886
2347,-0.976314
2348,-0.996160
2349,-0.999086
2350,-0.985044
2351,-0.954272
2352,-0.907292
2353,-0.844902
2354,-0.768162
2355,-0.678375
2356,-0.577067
2357,-0.465957
2358,-0.346934
2359,-0.222018
2360,-0.093331
2361,0.036941
2362,0.166585
2363,0.293401
2364,0.415232
2365,0.530012
2366,0.635790
2367,0.730769
2368,0.813336
2369,0.882090
2370,0.935862
2371,0.973739
2372,0.995077
2373,0.999515
2374,0.986977
2375,0.957675
2376,0.912108
2377,0.851050
2378,0.775537
2379,0.686852
2380,0.586501
2381,0.476189
2382,0.357790
2383,0.233313
2384,0.104874
2385,-0.025347
2386,-0.155137
2387,-0.282292
2388,-0.404652
2389,-0.520140
2390,-0.626793
2391,-0.722801
2392,-0.806533
2393,-0.876566
2394,-0.931711
2395,-0.971032
2396,-0.993861
2397,-0.999809
2398,-0.988776
2399,-0.960950
2400,-0.916802
2401,-0.857084
2402,-0.782808
2403,-0.695236
2404,-0.595857
2405,-0.486358
2406,-0.368597
2407,-0.244577
2408,-0.116403
2409,0.013749
2410,0.143667
2411,0.271145
2412,0.394017
2413,0.510198
2414,0.617713
2415,0.714737
2416,0.799621
2417,0.870924
2418,0.927436
2419,0.968195
2420,0.992510
2421,0.999968
2422,0.990443
2423,0.964095
2424,0.921373
2425,0.863002
2426,0.789973
2427,0.703527
2428,0.605133
2429,0.496460
2430,0.379356
2431,0.255808
2432,0.127916
2433,-0.002149
2434,-0.132178
2435,-0.259961
2436,-0.383329
2437,-0.500187
2438,-0.608549
2439,-0.706576
2440,-0.792602
2441,-0.865165
2442,-0.923035
2443,-0.965228
2444,-0.991026
2445,-0.999993
2446,-0.991976
2447,-0.967111
2448,-0.925819
2449,-0.868804
2450,-0.797032
2451,-0.711724
2452,-0.614327
2453,-0.506496
2454,-0.390063
2455,-0.267005
2456,-0.139411
2457,-0.009451
2458,0.120671
2459,0.248743
2460,0.372590
2461,0.490109
2462,0.599304
2463,0.698320
2464,0.785475
2465,0.859290
2466,0.918510
2467,0.962130
2468,0.989409
2469,0.999884
2470,0.993376
2471,0.969996
2472,0.930141
2473,0.874489
2474,0.803984
2475,0.719824
2476,0.623438
2477,0.516464
2478,0.400717
2479,0.278165
2480,0.150889
2481,0.021049
2482,-0.109148
2483,-0.237491
2484,-0.361800
2485,-0.479965
2486,-0.589978
2487,-0.689970
2488,-0.778244
2489,-0.853299
2490,-0.913862
2491,-0.958904
2492,-0.987659
2493,-0.999640
2494,-0.994642
2495,-0.972751
2496,-0.934338
2497,-0.880057
2498,-0.810828
2499,-0.727828
2500,-0.632466
2501,-0.526362
2502,-0.411318
2503,-0.289288
2504,-0.162345
2505,-0.032645
2506,0.097610
2507,0.226207
2508,0.350962
2509,0.469756
2510,0.580572
2511,0.681527
2512,0.770907
2513,0.847193
2514,0.909091
2515,0.955548
2516,0.985776
2517,0.999261
2518,0.995774
2519,0.975375
2520,0.938409
2521,0.885506
2522,0.817562
2523,0.735733
2524,0.641408
2525,0.536189
2526,0.421864
2527,0.300373
2528,0.173780
2529,0.044236
2530,-0.086059
2531,-0.214893
2532,-0.340077
2533,-0.459485
2534,-0.571088
2535,-0.672993
2536,-0.763467
2537,-0.840974
2538,-0.904197
2539,-0.952064
2540,-0.983760
2541,-0.998748
2542,-0.996772
2543,-0.977868
2544,-0.942354
2545,-0.890836
2546,-0.824187
2547,-0.743540
2548,-0.650264
2549,-0.545945
2550,-0.432352
2551,-0.311417
2552,-0.185192
2553,-0.055822
2554,0.074497
2555,0.203550
2556,0.329145
2557,0.449151
2558,0.561528
2559,0.664368
2560,0.755924
2561,0.834641
2562,0.899182
2563,0.948451
2564,0.981612
2565,0.998100
2566,0.997637
2567,0.980229
2568,0.946172
2569,0.896046
2570,0.830701
2571,0.751247
2572,0.659033
2573,0.555626
2574,0.442783
2575,0.322418
2576,0.196578
2577,0.067399
2578,-0.062924
2579,-0.192179
2580,-0.318170
2581,-0.438757
2582,-0.551892
2583,-0.655653
2584,-0.748279
2585,-0.828196
2586,-0.894046
2587,-0.944711
2588,-0.979331
2589,-0.997318
2590,-0.998366
2591,-0.982458
2592,-0.949863
2593,-0.901135
2594,-0.837103
2595,-0.758852
2596,-0.667713
2597,-0.565233
2598,-0.453153
2599,-0.333377
2600,-0.207938
2601,-0.078968
2602,0.051343
2603,0.180783
2604,0.307152
2605,0.428304
2606,0.542182
2607,0.646851
2608,0.740534
2609,0.821639
2610,0.888789
2611,0.940844
2612,0.976919
2613,0.996402
2614,0.998962
2615,0.984555
2616,0.953426
2617,0.906104
2618,0.843392
2619,0.766356
2620,0.676303
2621,0.574764
2622,0.463463
2623,0.344291
2624,0.219271
2625,0.090526
2626,-0.039755
2627,-0.169362
2628,-0.296092
2629,-0.417793
2630,-0.532398
2631,-0.637961
2632,-0.732689
2633,-0.814972
2634,-0.883413
2635,-0.936850
2636,-0.974376
2637,-0.995352
2638,-0.999423
2639,-0.986520
2640,-0.956861
2641,-0.910950
2642,-0.849568
2643,-0.773756
2644,-0.684802
2645,-0.584218
2646,-0.473711
2647,-0.355158
2648,-0.230573
2649,-0.102072
2650,0.028162
2651,0.157918
2652,0.284992
2653,0.407226
2654,0.522543
2655,0.628986
2656,0.724745
2657,0.808195
2658,0.877918
2659,0.932731
2660,0.971701
2661,0.994168
2662,0.999750
2663,0.988351
2664,0.960167
2665,0.915674
2666,0.855629
2667,0.781052
2668,0.693209
2669,0.593593
2670,0.483895
2671,0.365978
2672,0.241845
2673,0.113605
2674,-0.016565
2675,-0.146454
2676,-0.273855
2677,-0.396604
2678,-0.512618
2679,-0.619925
2680,-0.716704
2681,-0.801309
2682,-0.872305
2683,-0.928485
2684,-0.968896
2685,-0.992850
2686,-0.999942
2687,-0.990050
2688,-0.963343
2689,-0.920274
2690,-0.861575
2691,-0.788243
2692,-0.701523
2693,-0.602888
2694,-0.494013
2695,-0.376748
2696,-0.253084
2697,-0.125122
2698,0.004966
2699,0.134969
2700,0.262680
2701,0.385929
2702,0.502624
2703,0.610782
2704,0.708566
2705,0.794316
2706,0.866575
2707,0.924115
2708,0.965960
2709,0.991399
2710,1.000000
2711,0.991616
2712,0.966390
2713,0.924751
2714,0.867406
2715,0.795328
2716,0.709742
2717,0.612102
2718,0.504065
2719,0.387468
2720,0.264289
2721,0.136622
2722,0.006634
2723,-0.123466
2724,-0.251470
2725,-0.375202
2726,-0.492562
2727,-0.601556
2728,-0.700333
2729,-0.787215
2730,-0.860727
2731,-0.919620
2732,-0.962894
2733,-0.989814
2734,-0.999923
2735,-0.993048
2736,-0.969307
2737,-0.929104
2738,-0.873119
2739,-0.802306
2740,-0.717866
2741,-0.621234
2742,-0.514050
2743,-0.398135
2744,-0.275459
2745,-0.148104
2746,-0.018233
2747,0.111947
2748,0.240226
2749,0.364425
2750,0.482434
2751,0.592249
2752,0.692006
2753,0.780009
2754,0.854764
2755,0.915002
2756,0.959699
2757,0.988096
2758,0.999711
2759,0.994347
2760,0.972094
2761,0.933331
2762,0.878716
2763,0.809176
2764,0.725893
2765,0.630282
2766,0.523965
2767,0.408749
2768,0.286591
2769,0.159565
2770,0.029830
2771,-0.100413
2772,-0.228950
2773,-0.353598
2774,-0.472241
2775,-0.582863
2776,-0.683586
2777,-0.772698
2778,-0.848687
2779,-0.910261
2780,-0.956375
2781,-0.986245
2782,-0.999365
2783,-0.995512
2784,-0.974750
2785,-0.937433
2786,-0.884194
2787,-0.815937
2788,-0.733823
2789,-0.639245
2790,-0.533810
2791,-0.419308
2792,-0.297685
2793,-0.171006
2794,-0.041422
2795,0.088865
2796,0.217643
2797,0.342724
2798,0.461984
2799,0.573398
2800,0.675073
2801,0.765283
2802,0.842494
2803,0.905397
2804,0.952922
2805,0.984262
2806,0.998885
2807,0.996542
2808,0.977274
2809,0.941408
2810,0.889553
2811,0.822589
2812,0.741654
2813,0.648122
2814,0.543583
2815,0.429811
2816,0.308739
2817,0.182423
2818,0.053009
2819,-0.077305
2820,-0.206306
2821,-0.331804
2822,-0.451666
2823,-0.563856
2824,-0.666470
2825,-0.757765
2826,-0.836189
2827,-0.900411
2828,-0.949340
2829,-0.982146
2830,-0.998270
2831,-0.997439
2832,-0.979668
2833,-0.945257
2834,-0.894792
2835,-0.829129
2836,-0.749385
2837,-0.656912
2838,-0.553282
2839,-0.440255
2840,-0.319751
2841,-0.193816
2842,-0.064589
2843,0.065735
2844,0.194942
2845,0.320839
2846,0.441286
2847,0.554239
2848,0.657777
2849,0.750144
2850,0.829771
2851,0.895304
2852,0.945631
2853,0.979897
2854,0.997521
2855,0.998202
2856,0.981929
2857,0.948979
2858,0.899911
2859,0.835558
2860,0.757015
2861,0.665614
2862,0.562908
2863,0.450641
2864,0.330720
2865,0.205183
2866,0.076160
2867,-0.054156
2868,-0.183552
2869,-0.309831
2870,-0.430847
2871,-0.544546
2872,-0.648996
2873,-0.742423
2874,-0.823241
2875,-0.890077
2876,-0.941795
2877,-0.977517
2878,-0.996637
2879,-0.998830
2880,-0.984058
2881,-0.952573
2882,-0.904909
2883,-0.841875
2884,-0.764543
2885,-0.674226
2886,-0.572457
2887,-0.460966
2888,-0.341645
2889,-0.216522
2890,-0.087721
2891,0.042570
2892,0.172137
2893,0.298781
2894,0.420350
2895,0.534780
2896,0.640128
2897,0.734602
2898,0.816601
2899,0.884729
2900,0.937832
2901,0.975006
2902,0.995620
2903,0.999324
2904,0.986055
2905,0.956039
2906,0.909785
2907,0.848079
2908,0.771968
2909,0.682747
2910,0.581930
2911,0.471228
2912,0.352524
2913,0.227832
2914,0.099270
2915,-0.030977
2916,-0.160699
2917,-0.287691
2918,-0.409797
2919,-0.524943
2920,-0.631173
2921,-0.726683
2922,-0.809850
2923,-0.879263
2924,-0.933742
2925,-0.972363
2926,-0.994468
2927,-0.999683
2928,-0.987919
2929,-0.959376
2930,-0.914538
2931,-0.854168
2932,-0.779290
2933,-0.691176
2934,-0.591324
2935,-0.481428
2936,-0.363355
2937,-0.239111
2938,-0.110806
2939,0.019381
2940,0.149239
2941,0.276562
2942,0.399188
2943,0.515035
2944,0.622133
2945,0.718665
2946,0.802991
2947,0.873679
2948,0.929528
2949,0.969589
2950,0.993183
2951,0.999908
2952,0.989650
2953,0.962584
2954,0.919169
2955,0.860142
2956,0.786507
2957,0.699513
2958,0.600638
2959,0.491562
2960,0.374138
2961,0.250358
2962,0.122327
2963,-0.007782
2964,-0.137759
2965,-0.265397
2966,-0.388526
2967,-0.505057
2968,-0.613010
2969,-0.710551
2970,-0.796024
2971,-0.867977
2972,-0.925188
2973,-0.966685
2974,-0.991764
2975,-0.999998
2976,-0.991248
2977,-0.965662
2978,-0.923676
2979,-0.866001
2980,-0.793618
2981,-0.707755
2982,-0.609872
2983,-0.501631
2984,-0.384870
2985,-0.261572
2986,-0.133831
2987,-0.003817
2988,0.126261
2989,0.254195
2990,0.377812
2991,0.495011
2992,0.603804
2993,0.702341
2994,0.788949
2995,0.862158
2996,0.920723
2997,0.963651
2998,0.990211
2999,0.999954
3000,0.992713
3001,0.968611
3002,0.928058
3003,0.871743
3004,0.800622
3005,0.715902
3006,0.619024
3007,0.511632
3008,0.395550
3009,0.272750
3010,0.145317
3011,0.015417
3012,-0.114746
3013,-0.242959
3014,-0.367046
3015,-0.484899
3016,-0.594517
3017,-0.694036
3018,-0.781769
3019,-0.856223
3020,-0.916135
3021,-0.960487
3022,-0.988526
3023,-0.999775
3024,-0.994044
3025,-0.971429
3026,-0.932316
3027,-0.877368
3028,-0.807518
3029,-0.723953
3030,-0.628092
3031,-0.521564
3032,-0.406177
3033,-0.283892
3034,-0.156784
3035,-0.027014
3036,0.103215
3037,0.231691
3038,0.356231
3039,0.474722
3040,0.585149
3041,0.685639
3042,0.774483
3043,0.850173
3044,0.911423
3045,0.957194
3046,0.986707
3047,0.999462
3048,0.995241
3049,0.974117
3050,0.936448
3051,0.882874
3052,0.814306
3053,0.731906
3054,0.637076
3055,0.531426
3056,0.416749
3057,0.294995
3058,0.168230
3059,0.038608
3060,-0.091670
3061,-0.220391
3062,-0.345369
3063,-0.464481
3064,-0.575704
3065,-0.677149
3066,-0.767093
3067,-0.844008
3068,-0.906589
3069,-0.953772
3070,-0.984755
3071,-0.999014
3072,-0.996304
3073,-0.976673
3074,-0.940454
3075,-0.888262
3076,-0.820984
3077,-0.739761
3078,-0.645975
3079,-0.541216
3080,-0.427266
3081,-0.306059
3082,-0.179653
3083,-0.050196
3084,0.080113
3085,0.209062
3086,0.334460
3087,0.454177
3088,0.566180
3089,0.668567
3090,0.759600
3091,0.837730
3092,0.901633
3093,0.950222
3094,0.982672
3095,0.998431
3096,0.997234
3097,0.979099
3098,0.944334
3099,0.893531
3100,0.827551
3101,0.747517
3102,0.654786
3103,0.550934
3104,0.437725
3105,0.317081
3106,0.191052
3107,0.061778
3108,-0.068545
3109,-0.197704
3110,-0.323505
3111,-0.443812
3112,-0.556581
3113,-0.659896
3114,-0.752004
3115,-0.831339
3116,-0.896555
3117,-0.946543
3118,-0.980455
3119,-0.997715
3120,-0.998029
3121,-0.981392
3122,-0.948087
3123,-0.898679
3124,-0.834008
3125,-0.755171
3126,-0.663509
3127,-0.560577
3128,-0.448125
3129,-0.328061
3130,-0.202425
3131,-0.073351
3132,0.056968
3133,0.186320
3134,0.312508
3135,0.433387
3136,0.546906
3137,0.651136
3138,0.744307
3139,0.824837
3140,0.891357
3141,0.942738
3142,0.978107
3143,0.996864
3144,0.998690
3145,0.983553
3146,0.951712
3147,0.903706
3148,0.840352
3149,0.762725
3150,0.672143
3151,0.570145
3152,0.458464
3153,0.338997
3154,0.213771
3155,0.084915
3156,-0.045383
3157,-0.174911
3158,-0.301468
3159,-0.422904
3160,-0.537158
3161,-0.642289
3162,-0.736511
3163,-0.818223
3164,-0.886039
3165,-0.938806
3166,-0.975627
3167,-0.995879
3168,-0.999216
3169,-0.985582
3170,-0.955209
3171,-0.908612
3172,-0.846583
3173,-0.770175
3174,-0.680686
3175,-0.579637
3176,-0.468742
3177,-0.349887
3178,-0.225088
3179,-0.096467
3180,0.033793
3181,0.163478
3182,0.290387
3183,0.412365
3184,0.527338
3185,0.633355
3186,0.728615
3187,0.811499
3188,0.880601
3189,0.934747
3190,0.973016
3191,0.994760
3192,0.999608
3193,0.987478
3194,0.958577
3195,0.913395
3196,0.852700
3197,0.777522
3198,0.689138
3199,0.589050
3200,0.478957
3201,0.360730
3202,0.236375
3203,0.108006
3204,-0.022197
3205,-0.152024
3206,-0.279268
3207,-0.401769
3208,-0.517447
3209,-0.624336
3210,-0.720621
3211,-0.804667
3212,-0.875046
3213,-0.930563
3214,-0.970275
3215,-0.993507
3216,-0.999866
3217,-0.989242
3218,-0.961817
3219,-0.918056
3220,-0.858702
3221,-0.784764
3222,-0.697497
3223,-0.598384
3224,-0.489108
3225,-0.371524
3226,-0.247630
3227,-0.119531
3228,0.010599
3229,0.140549
3230,0.268111
3231,0.391120
3232,0.507486
3233,0.615233
3234,0.712530
3235,0.797725
3236,0.869372
3237,0.926253
3238,0.967402
3239,0.992121
3240,0.999988
3241,0.990872
3242,0.964927
3243,0.922593
3244,0.864589
3245,0.791901
3246,0.705763
3247,0.607638
3248,0.499192
3249,0.382268
3250,0.258852
3251,0.131039
3252,0.001001
3253,-0.129055
3254,-0.256918
3255,-0.380418
3256,-0.497457
3257,-0.606047
3258,-0.704343
3259,-0.790677
3260,-0.863581
3261,-0.921819
3262,-0.964399
3263,-0.990600
3264,-0.999977
3265,-0.992369
3266,-0.967907
3267,-0.927006
3268,-0.870359
3269,-0.798931
3270,-0.713933
3271,-0.616809
3272,-0.509210
3273,-0.392962
3274,-0.270039
3275,-0.142530
3276,-0.012601
3277,0.117543
3278,0.245690
3279,0.369665
3280,0.487361
3281,0.596779
3282,0.696061
3283,0.783522
3284,0.857675
3285,0.917260
3286,0.961267
3287,0.988947
3288,0.999831
3289,0.993733
3290,0.970757
3291,0.931294
3292,0.876013
3293,0.805853
3294,0.722007
3295,0.625898
3296,0.519159
3297,0.403602
3298,0.281190
3299,0.154002
3300,0.024199
3301,-0.106016
3302,-0.234430
3303,-0.358862
3304,-0.477199
3305,-0.587431
3306,-0.687686
3307,-0.776261
3308,-0.851652
3309,-0.912579
3310,-0.958005
3311,-0.987161
3312,-0.999550
3313,-0.994963
3314,-0.973476
3315,-0.935456
3316,-0.881548
3317,-0.812668
3318,-0.729984
3319,-0.634903
3320,-0.529038
3321,-0.414187
3322,-0.292302
3323,-0.165453
3324,-0.035793
3325,0.094474
3326,0.223137
3327,0.348011
3328,0.466973
3329,0.578004
3330,0.679219
3331,0.768897
3332,0.845516
3333,0.907774
3334,0.954614
3335,0.985241
3336,0.999135
3337,0.996058
3338,0.976065
3339,0.939493
3340,0.886965
3341,0.819372
3342,0.737863
3343,0.643822
3344,0.538846
3345,0.424718
3346,0.303376
3347,0.176882
3348,0.047383
3349,-0.082920
3350,-0.211815
3351,-0.337113
3352,-0.456684
3353,-0.568500
3354,-0.670659
3355,-0.761428
3356,-0.839265
3357,-0.902847
3358,-0.951095
3359,-0.983190
3360,-0.998585
3361,-0.997020
3362,-0.978522
3363,-0.943404
3364,-0.892263
3365,-0.825967
3366,-0.745643
3367,-0.652654
3368,-0.548581
3369,-0.435191
3370,-0.314409
3371,-0.188287
3372,-0.058967
3373,0.071355
3374,0.200464
3375,0.326169
3376,0.446334
3377,0.558919
3378,0.662010
3379,0.753858
3380,0.832902
3381,0.897799
3382,0.947448
3383,0.981006
3384,0.997901
3385,0.997848
3386,0.980847
3387,0.947187
3388,0.897440
3389,0.832450
3390,0.753322
3391,0.661399
3392,0.558243
3393,0.445605
3394,0.325399
3395,0.199666
3396,0.070542
3397,-0.059780
3398,-0.189087
3399,-0.315182
3400,-0.435924
3401,-0.549262
3402,-0.653271
3403,-0.746185
3404,-0.826426
3405,-0.892630
3406,-0.943674
3407,-0.978689
3408,-0.997083
3409,-0.998542
3410,-0.983041
3411,-0.950843
3412,-0.902497
3413,-0.838822
3414,-0.760900
3415,-0.670055
3416,-0.567829
3417,-0.455959
3418,-0.336345
3419,-0.211019
3420,-0.082108
3421,0.048197
3422,0.177683
3423,0.304152
3424,0.425455
3425,0.539532
3426,0.644445
3427,0.738413
3428,0.819839
3429,0.887341
3430,0.939772
3431,0.976242
3432,0.996130
3433,0.999101
3434,0.985102
3435,0.954372
3436,0.907432
3437,0.845080
3438,0.768375
3439,0.678620
3440,0.577339
3441,0.466252
3442,0.347247
3443,0.222343
3444,0.093663
3445,-0.036607
3446,-0.166256
3447,-0.293082
3448,-0.414929
3449,-0.529729
3450,-0.635532
3451,-0.730541
3452,-0.813142
3453,-0.881933
3454,-0.935744
3455,-0.973662
3456,-0.995044
3457,-0.999525
3458,-0.987030
3459,-0.957771
3460,-0.912245
3461,-0.851225
3462,-0.775748
3463,-0.687095
3464,-0.586772
3465,-0.476483
3466,-0.358101
3467,-0.233638
3468,-0.105206
3469,0.025013
3470,0.154807
3471,0.281971
3472,0.404347
3473,0.519855
3474,0.626533
3475,0.722571
3476,0.806336
3477,0.876405
3478,0.931590
3479,0.970952
3480,0.993824
3481,0.999815
3482,0.988826
3483,0.961042
3484,0.916935
3485,0.857255
3486,0.783015
3487,0.695476
3488,0.596125
3489,0.486649
3490,0.368908
3491,0.244900
3492,0.116734
3493,-0.013415
3494,-0.143337
3495,-0.270823
3496,-0.393711
3497,-0.509911
3498,-0.617451
3499,-0.714503
3500,-0.799421
3501,-0.870760
3502,-0.927311
3503,-0.968111
3504,-0.992469
3505,-0.999971
3506,-0.990489
3507,-0.964184
3508,-0.921502
3509,-0.863170
3510,-0.790178
3511,-0.703764
3512,-0.605398
3513,-0.496750
3514,-0.379664
3515,-0.256131
3516,-0.128247
3517,0.001816
3518,0.131847
3519,0.259639
3520,0.383021
3521,0.499898
3522,0.608285
3523,0.706340
3524,0.792398
3525,0.864998
3526,0.922907
3527,0.965140
3528,0.990982
3529,0.999992
3530,0.992018
3531,0.967195
3532,0.925946
3533,0.868969
3534,0.797234
3535,0.711958
3536,0.614590
3537,0.506784
3538,0.390370
3539,0.267326
3540,0.139742
3541,0.009784
3542,-0.120340
3543,-0.248420
3544,-0.372280
3545,-0.489818
3546,-0.599037
3547,-0.698081
3548,-0.785269
3549,-0.859119
3550,-0.918378
3551,-0.962039
3552,-0.989361
3553,-0.999879
3554,-0.993414
3555,-0.970077
3556,-0.930264
3557,-0.874651
3558,-0.804183
3559,-0.720056
3560,-0.623699
3561,-0.516749
3562,-0.401023
3563,-0.278486
3564,-0.151218
3565,-0.021383
3566,0.108816
3567,0.237167
3568,0.361489
3569,0.479672
3570,0.589708
3571,0.689728
3572,0.778034
3573,0.853125
3574,0.913727
3575,0.958809
3576,0.987607
3577,0.999631
3578,0.994676
3579,0.972828
3580,0.934457
3581,0.880215
3582,0.811023
3583,0.728056
3584,0.632724
3585,0.526646
3586,0.411622
3587,0.289608
3588,0.162674
3589,0.032978
3590,-0.097278
3591,-0.225882
3592,-0.350650
3593,-0.469462
3594,-0.580300
3595,-0.681283
3596,-0.770694
3597,-0.847016
3598,-0.908952
3599,-0.955450
3600,-0.985720
3601,-0.999248
3602,-0.995805
3603,-0.975448
3604,-0.938525
3605,-0.885661
3606,-0.817755
3607,-0.735959
3608,-0.641664
3609,-0.536471
3610,-0.422166
3611,-0.300691
3612,-0.174109
3613,-0.044569
3614,0.085727
3615,0.214567
3616,0.339763
3617,0.459188
3618,0.570815
3619,0.672746
3620,0.763251
3621,0.840793
3622,0.904055
3623,0.951962
3624,0.983700
3625,0.998731
3626,0.996799
3627,0.977937
3628,0.942466
3629,0.890987
3630,0.824376
3631,0.743763
3632,0.650518
3633,0.546224
3634,0.432653
3635,0.311734
3636,0.185520
3637,0.056155
3638,-0.074164
3639,-0.203223
3640,-0.328830
3641,-0.448853
3642,-0.561252
3643,-0.664118
3644,-0.755705
3645,-0.834457
3646,-0.899036
3647,-0.948346
3648,-0.981548
3649,-0.998080
3650,-0.997659
3651,-0.980295
3652,-0.946280
3653,-0.896194
3654,-0.830886
3655,-0.751467
3656,-0.659284
3657,-0.555904
3658,-0.443082
3659,-0.322734
3660,-0.196905
3661,-0.067732
3662,0.062591
3663,0.191852
3664,0.317854
3665,0.438457
3666,0.551614
3667,0.655401
3668,0.748058
3669,0.828009
3670,0.893896
3671,0.944602
3672,0.979264
3673,0.997294
3674,0.998385
3675,0.982520
3676,0.949967
3677,0.901280
3678,0.837285
3679,0.759069
3680,0.667961
3681,0.565508
3682,0.453451
3683,0.333692
3684,0.208265
3685,0.079301
3686,-0.051010
3687,-0.180455
3688,-0.306834
3689,-0.428002
3690,-0.541901
3691,-0.646596
3692,-0.740309
3693,-0.821449
3694,-0.888636
3695,-0.940731
3696,-0.976848
3697,-0.996374
3698,-0.998977
3699,-0.984613
3700,-0.953527
3701,-0.906245
3702,-0.843571
3703,-0.766570
3704,-0.676549
3705,-0.575037
3706,-0.463759
3707,-0.344604
3708,-0.219596
3709,-0.090859
3710,0.039422
3711,0.169033
3712,0.295773
3713,0.417490
3714,0.532116
3715,0.637704
3716,0.732461
3717,0.814778
3718,0.883257
3719,0.936734
3720,0.974301
3721,0.995320
3722,0.999434
3723,0.986574
3724,0.956958
3725,0.911088
3726,0.849744
3727,0.773967
3728,0.685045
3729,0.584489
3730,0.474005
3731,0.355470
3732,0.230898
3733,0.102404
3734,-0.027829
3735,-0.157589
3736,-0.284673
3737,-0.406921
3738,-0.522259
3739,-0.628726
3740,-0.724515
3741,-0.807998
3742,-0.877758
3743,-0.932610
3744,-0.971622
3745,-0.994132
3746,-0.999757
3747,-0.988402
3748,-0.960260
3749,-0.915808
3750,-0.855802
3751,-0.781260
3752,-0.693450
3753,-0.593861
3754,-0.484187
3755,-0.366288
3756,-0.242169
3757,-0.113936
3758,0.016232
3759,0.146124
3760,0.273534
3761,0.396298
3762,0.512332
3763,0.619664
3764,0.716471
3765,0.801110
3766,0.872142
3767,0.928361
3768,0.968813
3769,0.992811
3770,0.999946
3771,0.990097
3772,0.963433
3773,0.920405
3774,0.861745
3775,0.788448
3776,0.701761
3777,0.603154
3778,0.494303
3779,0.377057
3780,0.253407
3781,0.125453
3782,-0.004632
3783,-0.134638
3784,-0.262358
3785,-0.385622
3786,-0.502336
3787,-0.610518
3788,-0.708331
3789,-0.794113
3790,-0.866408
3791,-0.923988
3792,-0.965874
3793,-0.991355
3794,-0.999999
3795,-0.991659
3796,-0.966476
3797,-0.924878
3798,-0.867572
3799,-0.795530
3800,-0.709977
3801,-0.612366
3802,-0.504354
3803,-0.387775
3804,-0.264611
3805,-0.136952
3806,-0.006968
3807,0.123135
3808,0.251147
3809,0.374893
3810,0.492272
3811,0.601290
3812,0.700095
3813,0.787010
3814,0.860557
3815,0.919489
3816,0.962804
3817,0.989767
3818,0.999918
3819,0.993087
3820,0.969389
3821,0.929227
3822,0.873282
3823,0.802505
3824,0.718098
3825,0.621495
3826,0.514336
3827,0.398441
3828,0.275779
3829,0.148434
3830,0.018567
3831,-0.111616
3832,-0.239902
3833,-0.364114
3834,-0.482142
3835,-0.591981
3836,-0.691765
3837,-0.779800
3838,-0.854591
3839,-0.914867
3840,-0.959605
3841,-0.988045
3842,-0.999703
3843,-0.994382
3844,-0.972172
3845,-0.933451
3846,-0.878875
3847,-0.809372
3848,-0.726123
3849,-0.630541
3850,-0.524249
3851,-0.409054
3852,-0.286911
3853,-0.159895
3854,-0.030163
3855,0.100081
3856,0.228625
3857,0.353286
3858,0.471947
3859,0.582592
3860,0.683342
3861,0.772486
3862,0.848510
3863,0.910122
3864,0.956277
3865,0.986190
3866,0.999353
3867,0.995543
3868,0.974824
3869,0.937549
3870,0.884349
3871,0.816130
3872,0.734049
3873,0.639501
3874,0.534092
3875,0.419611
3876,0.298003
3877,0.171334
3878,0.041756
3879,-0.088533
3880,-0.217317
3881,-0.342411
3882,-0.461689
3883,-0.573125
3884,-0.674827
3885,-0.765068
3886,-0.842315
3887,-0.905255
3888,-0.952820
3889,-0.984203
3890,-0.998869
3891,-0.996570
3892,-0.977345
3893,-0.941521
3894,-0.889705
3895,-0.822778
3896,-0.741877
3897,-0.648376
3898,-0.543863
3899,-0.430112
3900,-0.309056
3901,-0.182751
3902,-0.053342
3903,0.076973
3904,0.205980
3905,0.331489
3906,0.451368
3907,0.563581
3908,0.666221
3909,0.757547
3910,0.836006
3911,0.900266
3912,0.949235
3913,0.982083
3914,0.998250
3915,0.997463
3916,0.979734
3917,0.945366
3918,0.894941
3919,0.829316
3920,0.749605
3921,0.657164
3922,0.553560
3923,0.440555
3924,0.320067
3925,0.194143
3926,0.064922
3927,-0.065402
3928,-0.194615
3929,-0.320523
3930,-0.440987
3931,-0.553961
3932,-0.657526
3933,-0.749924
3934,-0.829585
3935,-0.895155
3936,-0.945523
3937,-0.979831
3938,-0.997497
3939,-0.998222
3940,-0.981992
3941,-0.949084
3942,-0.900056
3943,-0.835742
3944,-0.757233
3945,-0.665863
3946,-0.563183
3947,-0.450939
3948,-0.331035
3949,-0.205509
3950,-0.076493
3951,0.053823
3952,0.183224
3953,0.309514
3954,0.430546
3955,0.544266
3956,0.648742
3957,0.742200
3958,0.823052
3959,0.889925
3960,0.941683
3961,0.977447
3962,0.996610
3963,0.998846
3964,0.984117
3965,0.952674
3966,0.905051
3967,0.842055
3968,0.764758
3969,0.674472
3970,0.572731
3971,0.461262
3972,0.341959
3973,0.216847
3974,0.088053
3975,-0.042236
3976,-0.171808
3977,-0.298463
3978,-0.420048
3979,-0.534498
3980,-0.639871
3981,-0.734376
3982,-0.816408
3983,-0.884574
3984,-0.937716
3985,-0.974931
3986,-0.995588
3987,-0.999336
3988,-0.986110
3989,-0.956136
3990,-0.909923
3991,-0.848255
3992,-0.772181
3993,-0.682991
3994,-0.582201
3995,-0.471523
3996,-0.352836
3997,-0.228157
3998,-0.099602
3999,0.030644
4000,0.160370
4001,0.287372
4002,0.409493
4003,0.524659
4004,0.630914
4005,0.726453
4006,0.809655
4007,0.879104
4008,0.933623
4009,0.972285
4010,0.994433
4011,0.999691
4012,0.987971
4013,0.959470
4014,0.914673
4015,0.854341
4016,0.779499
4017,0.691418
4018,0.591593
4019,0.481720
4020,0.363666
4021,0.239435
4022,0.111137
4023,-0.019048
4024,-0.148909
4025,-0.276242
4026,-0.398883
4027,-0.514748
4028,-0.621872
4029,-0.718433
4030,-0.802792
4031,-0.873516
4032,-0.929405
4033,-0.969507
4034,-0.993144
4035,-0.999912
4036,-0.989698
4037,-0.962674
4038,-0.919300
4039,-0.860312
4040,-0.786713
4041,-0.699751
4042,-0.600905
4043,-0.491853
4044,-0.374447
4045,-0.250681
4046,-0.122658
4047,0.007449
4048,0.137429
4049,0.265075
4050,0.388219
4051,0.504769
4052,0.612746
4053,0.710316
4054,0.795822
4055,0.867811
4056,0.925061
4057,0.966599
4058,0.991721
4059,0.999999
4060,0.991292
4061,0.965749
4062,0.923803
4063,0.866168
4064,0.793821
4065,0.707991
4066,0.610137
4067,0.501919
4068,0.385178
4069,0.261894
4070,0.134162
4071,0.004151
4072,-0.125930
4073,-0.253872
4074,-0.377503
4075,-0.494721
4076,-0.603538
4077,-0.702103
4078,-0.788744
4079,-0.861989
4080,-0.920593
4081,-0.963562
4082,-0.990165
4083,-0.999950
4084,-0.992753
4085,-0.968694
4086,-0.928182
4087,-0.871906
4088,-0.800822
4089,-0.716135
4090,-0.619286
4091,-0.511918
4092,-0.395856
4093,-0.273071
4094,-0.145648
4095,-0.015750
