\relax 
\providecommand\hyper@newdestlabel[2]{}
\providecommand\BKM@entry[2]{}
\providecommand*{\memsetcounter}[2]{}
\providecommand\HyperFirstAtBeginDocument{\AtBeginDocument}
\HyperFirstAtBeginDocument{\ifx\hyper@anchor\@undefined
\global\let\oldcontentsline\contentsline
\gdef\contentsline#1#2#3#4{\oldcontentsline{#1}{#2}{#3}}
\global\let\oldnewlabel\newlabel
\gdef\newlabel#1#2{\newlabelxx{#1}#2}
\gdef\newlabelxx#1#2#3#4#5#6{\oldnewlabel{#1}{{#2}{#3}}}
\AtEndDocument{\ifx\hyper@anchor\@undefined
\let\contentsline\oldcontentsline
\let\newlabel\oldnewlabel
\fi}
\fi}
\global\let\hyper@last\relax 
\gdef\HyperFirstAtBeginDocument#1{#1}
\providecommand*\HyPL@Entry[1]{}
\catcode `"\active 
\abx@aux@sortscheme{nty}
\abx@aux@refcontext{nty/global/}
\HyPL@Entry{0<</S/D>>}
\@writefile{toc}{\changetocdepth  {4}}
\providecommand \oddpage@label [2]{}
\@writefile{toc}{\boolfalse {citerequest}\boolfalse {citetracker}\boolfalse {pagetracker}\boolfalse {backtracker}\relax }
\@writefile{lof}{\boolfalse {citerequest}\boolfalse {citetracker}\boolfalse {pagetracker}\boolfalse {backtracker}\relax }
\@writefile{lot}{\boolfalse {citerequest}\boolfalse {citetracker}\boolfalse {pagetracker}\boolfalse {backtracker}\relax }
\select@language{brazil}
\@writefile{toc}{\defcounter {refsection}{0}\relax }\@writefile{toc}{\select@language{brazil}}
\@writefile{lof}{\defcounter {refsection}{0}\relax }\@writefile{lof}{\select@language{brazil}}
\@writefile{lot}{\defcounter {refsection}{0}\relax }\@writefile{lot}{\select@language{brazil}}
\select@language{brazil}
\@writefile{toc}{\select@language{brazil}}
\@writefile{lof}{\select@language{brazil}}
\@writefile{lot}{\select@language{brazil}}
\BKM@entry{id=1,dest={6368617074657262312E30},srcline={166},srcfile={747265696E616D656E746F2E746578}}{466F6C686120646520726F73746F}
\HyPL@Entry{1<</S/D>>}
\BKM@entry{id=2,dest={6C6F662E30},srcline={182},srcfile={747265696E616D656E746F2E746578}}{4C6973746120646520696C75737472615C3334375C3336356573}
\@writefile{toc}{\setlength  {\cftchapterindent }{\cftlastnumwidth } \setlength  {\cftchapternumwidth }{2em}}
\BKM@entry{id=3,dest={6C6F742E30},srcline={192},srcfile={747265696E616D656E746F2E746578}}{4C6973746120646520746162656C6173}
\@writefile{toc}{\setlength  {\cftchapterindent }{\cftlastnumwidth } \setlength  {\cftchapternumwidth }{2em}}
\BKM@entry{id=4,dest={6368617074657262332E30},srcline={200},srcfile={747265696E616D656E746F2E746578}}{4C69737461206465206162726576696174757261732065207369676C6173}
\@writefile{toc}{\setlength  {\cftchapterindent }{\cftlastnumwidth } \setlength  {\cftchapternumwidth }{2em}}
\BKM@entry{id=5,dest={746F632E30},srcline={227},srcfile={747265696E616D656E746F2E746578}}{53756D5C33343172696F}
\@writefile{toc}{\setlength  {\cftchapterindent }{\cftlastnumwidth } \setlength  {\cftchapternumwidth }{2em}}
\BKM@entry{id=6,dest={636861707465722E31},srcline={242},srcfile={747265696E616D656E746F2E746578}}{496E74726F64755C3334375C3334336F}
\@writefile{toc}{\setlength  {\cftchapterindent }{0em} \setlength  {\cftchapternumwidth }{\cftlastnumwidth }}
\@writefile{toc}{\contentsline {chapter}{\chapternumberline {1}\MakeTextUppercase  {Introdu\c {c}\~{a}o}}{6}{chapter.1}}
\BKM@entry{id=7,dest={636861707465722E32},srcline={253},srcfile={747265696E616D656E746F2E746578}}{45737461646F2064612041727465}
\abx@aux@cite{goswami}
\abx@aux@segm{0}{0}{goswami}
\abx@aux@cite{bhakre}
\abx@aux@segm{0}{0}{bhakre}
\abx@aux@cite{terrazas}
\abx@aux@segm{0}{0}{terrazas}
\abx@aux@cite{arritmia}
\abx@aux@segm{0}{0}{arritmia}
\abx@aux@cite{qiao}
\abx@aux@segm{0}{0}{qiao}
\abx@aux@segm{0}{0}{qiao}
\abx@aux@segm{0}{0}{arritmia}
\abx@aux@cite{zcr_img_olhos}
\abx@aux@segm{0}{0}{zcr_img_olhos}
\@writefile{toc}{\setlength  {\cftchapterindent }{0em} \setlength  {\cftchapternumwidth }{\cftlastnumwidth }}
\@writefile{toc}{\contentsline {chapter}{\chapternumberline {2}\MakeTextUppercase  {Estado da Arte}}{7}{chapter.2}}
\newlabel{ch:estado_da_arte}{{\M@TitleReference {2}{\MakeTextUppercase  {Estado da Arte}}}{7}{Estado da Arte}{chapter.2}{}}
\abx@aux@cite{zcr_iris}
\abx@aux@segm{0}{0}{zcr_iris}
\abx@aux@cite{zcr_iris_lento}
\abx@aux@segm{0}{0}{zcr_iris_lento}
\abx@aux@cite{zcr_iris_menos_lento}
\abx@aux@segm{0}{0}{zcr_iris_menos_lento}
\abx@aux@cite{zcr_iris_mais_rapido}
\abx@aux@segm{0}{0}{zcr_iris_mais_rapido}
\abx@aux@cite{zcr_unvoiced}
\abx@aux@segm{0}{0}{zcr_unvoiced}
\abx@aux@cite{bearing_analysis}
\abx@aux@segm{0}{0}{bearing_analysis}
\abx@aux@cite{breast_cancer}
\abx@aux@segm{0}{0}{breast_cancer}
\abx@aux@cite{compara_breast_cancer_1}
\abx@aux@segm{0}{0}{compara_breast_cancer_1}
\abx@aux@cite{compara_breast_cancer_2}
\abx@aux@segm{0}{0}{compara_breast_cancer_2}
\abx@aux@cite{compara_breast_cancer_3}
\abx@aux@segm{0}{0}{compara_breast_cancer_3}
\abx@aux@segm{0}{0}{breast_cancer}
\abx@aux@cite{image_segmentation}
\abx@aux@segm{0}{0}{image_segmentation}
\abx@aux@cite{open_cracks_energy}
\abx@aux@segm{0}{0}{open_cracks_energy}
\abx@aux@cite{lung_diseases}
\abx@aux@segm{0}{0}{lung_diseases}
\abx@aux@segm{0}{0}{lung_diseases}
\abx@aux@cite{bolsa_valores}
\abx@aux@segm{0}{0}{bolsa_valores}
\abx@aux@cite{random_numbers}
\abx@aux@segm{0}{0}{random_numbers}
\BKM@entry{id=8,dest={636861707465722E33},srcline={291},srcfile={747265696E616D656E746F2E746578}}{46756E64616D656E74615C3334375C3334336F2054655C33363372696361}
\BKM@entry{id=9,dest={73656374696F6E2E332E31},srcline={296},srcfile={747265696E616D656E746F2E746578}}{5A65726F2043726F7373696E672052617465}
\BKM@entry{id=10,dest={73756273656374696F6E2E332E312E31},srcline={297},srcfile={747265696E616D656E746F2E746578}}{53696E61697320556E6964696D656E73696F6E616973}
\abx@aux@cite{sinais_sistemas}
\abx@aux@segm{0}{0}{sinais_sistemas}
\abx@aux@cite{artigo_zcr_guido}
\abx@aux@segm{0}{0}{artigo_zcr_guido}
\abx@aux@segm{0}{0}{artigo_zcr_guido}
\@writefile{toc}{\setlength  {\cftchapterindent }{0em} \setlength  {\cftchapternumwidth }{\cftlastnumwidth }}
\@writefile{toc}{\contentsline {chapter}{\chapternumberline {3}\MakeTextUppercase  {Fundamenta\c {c}\~{a}o Te\'{o}rica}}{11}{chapter.3}}
\newlabel{ch:fundamentacao_teorica}{{\M@TitleReference {3}{\MakeTextUppercase  {Fundamenta\c {c}\~{a}o Te\'{o}rica}}}{11}{Fundamenta\c {c}\~{a}o Te\'{o}rica}{chapter.3}{}}
\@writefile{toc}{\contentsline {section}{\numberline {3.1}Zero Crossing Rate}{11}{section.3.1}}
\@writefile{toc}{\contentsline {subsection}{\numberline {3.1.1}Sinais Unidimensionais}{11}{subsection.3.1.1}}
\newlabel{eq:zcr_formula}{{3.1}{11}{Sinais Unidimensionais}{equation.3.1.1}{}}
\abx@aux@cite{bussab_estatistica}
\abx@aux@segm{0}{0}{bussab_estatistica}
\abx@aux@segm{0}{0}{bussab_estatistica}
\@writefile{lof}{\contentsline {figure}{\numberline {1}{\ignorespaces Esta figura, retirada de \cite {artigo_zcr_guido}, mostra sinais com varia\IeC {\c c}\IeC {\~o}es de amplitude diferentes, no espectro do tempo. Em azul, o sinal senoidal puro; em vermelho, o sinal senoidal composto; em marrom, a onda quadrada.}}{12}{figure.3.1}}
\newlabel{fig:exemplo_sinais_diferentes}{{\M@TitleReference {1}{Esta figura, retirada de \cite {artigo_zcr_guido}, mostra sinais com varia\IeC {\c c}\IeC {\~o}es de amplitude diferentes, no espectro do tempo. Em azul, o sinal senoidal puro; em vermelho, o sinal senoidal composto; em marrom, a onda quadrada.}}{12}{Esta figura, retirada de \cite {artigo_zcr_guido}, mostra sinais com variações de amplitude diferentes, no espectro do tempo. Em azul, o sinal senoidal puro; em vermelho, o sinal senoidal composto; em marrom, a onda quadrada}{figure.3.1}{}}
\newlabel{eq:freq_fundamental_zcr}{{3.2}{12}{Sinais Unidimensionais}{equation.3.1.2}{}}
\newlabel{eq:media_aritm}{{3.3}{12}{Sinais Unidimensionais}{equation.3.1.3}{}}
\gincltex@bb{audio_sem_processamento.tex}{0}{0}{464.55965}{120.28033}
\BKM@entry{id=11,dest={73756273656374696F6E2E332E312E32},srcline={363},srcfile={747265696E616D656E746F2E746578}}{456E74726164617320426964696D656E73696F6E616973}
\@writefile{lof}{\contentsline {figure}{\numberline {2}{\ignorespaces Nesta figura, \IeC {\'e} poss\IeC {\'\i }vel observar um sinal, em azul, que precisar\IeC {\'a} de t\IeC {\'e}cnicas de pr\IeC {\'e}-processamento, pois est\IeC {\'a} deslocado para cima; e em vermelho, um sinal pronto, cuja m\IeC {\'e}dia aritm\IeC {\'e}tica \IeC {\'e} 0.}}{13}{figure.3.2}}
\newlabel{fig:sinal_processamento}{{\M@TitleReference {2}{Nesta figura, \IeC {\'e} poss\IeC {\'\i }vel observar um sinal, em azul, que precisar\IeC {\'a} de t\IeC {\'e}cnicas de pr\IeC {\'e}-processamento, pois est\IeC {\'a} deslocado para cima; e em vermelho, um sinal pronto, cuja m\IeC {\'e}dia aritm\IeC {\'e}tica \IeC {\'e} 0.}}{13}{Nesta figura, é possível observar um sinal, em azul, que precisará de técnicas de pré-processamento, pois está deslocado para cima; e em vermelho, um sinal pronto, cuja média aritmética é 0}{figure.3.2}{}}
\abx@aux@segm{0}{0}{artigo_zcr_guido}
\BKM@entry{id=12,dest={73656374696F6E2E332E32},srcline={375},srcfile={747265696E616D656E746F2E746578}}{456E6572676961}
\BKM@entry{id=13,dest={73756273656374696F6E2E332E322E31},srcline={379},srcfile={747265696E616D656E746F2E746578}}{53696E61697320556E6964696D656E73696F6E616973}
\abx@aux@cite{energia_fisica}
\abx@aux@segm{0}{0}{energia_fisica}
\abx@aux@cite{energia_eletro}
\abx@aux@segm{0}{0}{energia_eletro}
\@writefile{toc}{\contentsline {subsection}{\numberline {3.1.2}Entradas Bidimensionais}{14}{subsection.3.1.2}}
\newlabel{subsec:entrada_bidimensional}{{\M@TitleReference {3.1.2}{Entradas Bidimensionais}}{14}{Entradas Bidimensionais}{subsection.3.1.2}{}}
\@writefile{toc}{\contentsline {section}{\numberline {3.2}Energia}{14}{section.3.2}}
\newlabel{sec:energia}{{\M@TitleReference {3.2}{Energia}}{14}{Energia}{section.3.2}{}}
\@writefile{toc}{\contentsline {subsection}{\numberline {3.2.1}Sinais Unidimensionais}{14}{subsection.3.2.1}}
\newlabel{eq:def_energia}{{3.4}{14}{Sinais Unidimensionais}{equation.3.2.4}{}}
\abx@aux@cite{guido_energia}
\abx@aux@segm{0}{0}{guido_energia}
\BKM@entry{id=14,dest={73656374696F6E2E332E33},srcline={406},srcfile={747265696E616D656E746F2E746578}}{456E74726F706961}
\newlabel{eq:limitante_somatorios}{{3.5}{15}{Sinais Unidimensionais}{equation.3.2.5}{}}
\newlabel{eq:formula_calculo_energia}{{3.6}{15}{Sinais Unidimensionais}{equation.3.2.6}{}}
\@writefile{toc}{\contentsline {section}{\numberline {3.3}Entropia}{15}{section.3.3}}
\abx@aux@cite{meyer}
\abx@aux@segm{0}{0}{meyer}
\abx@aux@segm{0}{0}{meyer}
\abx@aux@segm{0}{0}{meyer}
\newlabel{eq:definicao_entropia}{{3.7}{16}{Entropia}{equation.3.3.7}{}}
\newlabel{eq:definicao_esperanca}{{3.8}{16}{Entropia}{equation.3.3.8}{}}
\BKM@entry{id=15,dest={73656374696F6E2E332E34},srcline={444},srcfile={747265696E616D656E746F2E746578}}{5472616E73666F726D61646120446973637265746120646520466F7572696572}
\abx@aux@cite{gonzalez_pdi}
\abx@aux@segm{0}{0}{gonzalez_pdi}
\BKM@entry{id=16,dest={73656374696F6E2E332E35},srcline={467},srcfile={747265696E616D656E746F2E746578}}{416D6F7374726167656D}
\newlabel{eq:definicao_entropia_explicita}{{3.9}{17}{Entropia}{equation.3.3.9}{}}
\@writefile{toc}{\contentsline {section}{\numberline {3.4}Transformada Discreta de Fourier}{17}{section.3.4}}
\newlabel{eq:dft}{{3.10}{17}{Transformada Discreta de Fourier}{equation.3.4.10}{}}
\newlabel{eq:idft}{{3.11}{17}{Transformada Discreta de Fourier}{equation.3.4.11}{}}
\BKM@entry{id=17,dest={73656374696F6E2E332E36},srcline={477},srcfile={747265696E616D656E746F2E746578}}{46696C74726F73}
\@writefile{toc}{\contentsline {section}{\numberline {3.5}Amostragem}{18}{section.3.5}}
\newlabel{sec:amostragem}{{\M@TitleReference {3.5}{Amostragem}}{18}{Amostragem}{section.3.5}{}}
\@writefile{toc}{\contentsline {section}{\numberline {3.6}Filtros}{18}{section.3.6}}
\BKM@entry{id=18,dest={73656374696F6E2E332E37},srcline={507},srcfile={747265696E616D656E746F2E746578}}{436F6E766F6C755C3334375C3334336F}
\@writefile{loa}{\contentsline {algorithm}{\numberline {1}{\ignorespaces Processo de filtragem no dom\IeC {\'\i }nio da frequ\IeC {\^e}ncia}}{19}{algorithm.1}}
\newlabel{filtragem_frequencia}{{\M@TitleReference {1}{Filtros}}{19}{Filtros}{algorithm.1}{}}
\newlabel{alg:processo_filtragem}{{\M@TitleReference {1}{Filtros}}{19}{Filtros}{algorithm.1}{}}
\@writefile{toc}{\contentsline {section}{\numberline {3.7}Convolu\IeC {\c c}\IeC {\~a}o}{19}{section.3.7}}
\newlabel{eq:convolucao_exemplo}{{3.12}{19}{Convolução}{equation.3.7.12}{}}
\abx@aux@cite{teorema_convolucao}
\abx@aux@segm{0}{0}{teorema_convolucao}
\BKM@entry{id=19,dest={73656374696F6E2E332E38},srcline={531},srcfile={747265696E616D656E746F2E746578}}{46696C74726F20464952}
\BKM@entry{id=20,dest={73656374696F6E2E332E39},srcline={541},srcfile={747265696E616D656E746F2E746578}}{46696C74726F20494952}
\newlabel{eq:sinc}{{3.13}{20}{Convolução}{equation.3.7.13}{}}
\@writefile{toc}{\contentsline {section}{\numberline {3.8}Filtro FIR}{20}{section.3.8}}
\newlabel{eq:filtro_fir}{{3.14}{20}{Filtro FIR}{equation.3.8.14}{}}
\@writefile{toc}{\contentsline {section}{\numberline {3.9}Filtro IIR}{20}{section.3.9}}
\newlabel{eq:filtro_iir}{{3.15}{21}{Filtro IIR}{equation.3.9.15}{}}
\BKM@entry{id=21,dest={636861707465722E34},srcline={554},srcfile={747265696E616D656E746F2E746578}}{4F73206D5C333531746F646F732061706C696361646F73}
\BKM@entry{id=22,dest={73656374696F6E2E342E31},srcline={565},srcfile={747265696E616D656E746F2E746578}}{5A65726F2043726F7373696E672052617465}
\@writefile{toc}{\setlength  {\cftchapterindent }{0em} \setlength  {\cftchapternumwidth }{\cftlastnumwidth }}
\@writefile{toc}{\contentsline {chapter}{\chapternumberline {4}\MakeTextUppercase  {Os m\IeC {\'e}todos aplicados}}{22}{chapter.4}}
\newlabel{ch:metodos}{{\M@TitleReference {4}{\MakeTextUppercase  {Os m\IeC {\'e}todos aplicados}}}{22}{Os métodos aplicados}{chapter.4}{}}
\newlabel{eq:tamanho_janela}{{4.1}{22}{Os métodos aplicados}{equation.4.0.1}{}}
\@writefile{toc}{\contentsline {section}{\numberline {4.1}Zero Crossing Rate}{22}{section.4.1}}
\newlabel{eq:ta_normalizacao}{{4.2}{22}{Zero Crossing Rate}{equation.4.1.2}{}}
\newlabel{eq:pa_normalizacao}{{4.3}{22}{Zero Crossing Rate}{equation.4.1.3}{}}
\BKM@entry{id=23,dest={73656374696F6E2E342E32},srcline={597},srcfile={747265696E616D656E746F2E746578}}{456E6572676961}
\newlabel{eq:ea_normalizacao}{{4.4}{23}{Zero Crossing Rate}{equation.4.1.4}{}}
\@writefile{toc}{\contentsline {section}{\numberline {4.2}Energia}{23}{section.4.2}}
\newlabel{eq:a1_energia}{{4.5}{24}{Energia}{equation.4.2.5}{}}
\BKM@entry{id=24,dest={73656374696F6E2E342E33},srcline={628},srcfile={747265696E616D656E746F2E746578}}{41205472616E73666F726D61646120446973637265746120646520466F7572696572}
\abx@aux@cite{cpp_thread}
\abx@aux@segm{0}{0}{cpp_thread}
\BKM@entry{id=25,dest={73756273656374696F6E2E342E332E31},srcline={659},srcfile={747265696E616D656E746F2E746578}}{4120496E7665727361206461205472616E73666F726D61646120446973637265746120646520466F7572696572}
\@writefile{toc}{\contentsline {section}{\numberline {4.3}A Transformada Discreta de Fourier}{25}{section.4.3}}
\@writefile{lof}{\contentsline {figure}{\numberline {3}{\ignorespaces Esta figura mostra a execu\IeC {\c c}\IeC {\~a}o do software desenvolvido. Cada uma das 4 threads recebe um trecho do sinal, e calcula a DFT para este intervalo. Ao final, estes valores s\IeC {\~a}o concatenados, transformando-se em um sinal do mesmo tamanho do sinal de entrada.}}{26}{figure.4.3}}
\newlabel{fig:execucao_dft}{{\M@TitleReference {3}{Esta figura mostra a execu\IeC {\c c}\IeC {\~a}o do software desenvolvido. Cada uma das 4 threads recebe um trecho do sinal, e calcula a DFT para este intervalo. Ao final, estes valores s\IeC {\~a}o concatenados, transformando-se em um sinal do mesmo tamanho do sinal de entrada.}}{26}{Esta figura mostra a execução do software desenvolvido. Cada uma das 4 threads recebe um trecho do sinal, e calcula a DFT para este intervalo. Ao final, estes valores são concatenados, transformando-se em um sinal do mesmo tamanho do sinal de entrada}{figure.4.3}{}}
\@writefile{lof}{\contentsline {figure}{\numberline {4}{\ignorespaces Esta figura mostra a execu\IeC {\c c}\IeC {\~a}o do software desenvolvido. Ao final da execu\IeC {\c c}\IeC {\~a}o, o software exibe o tempo levado para calcular a DFT. Nesta execu\IeC {\c c}\IeC {\~a}o, o tempo foi de 1569,49 segundos.}}{26}{figure.4.4}}
\newlabel{fig:tempo_execucao_dft}{{\M@TitleReference {4}{Esta figura mostra a execu\IeC {\c c}\IeC {\~a}o do software desenvolvido. Ao final da execu\IeC {\c c}\IeC {\~a}o, o software exibe o tempo levado para calcular a DFT. Nesta execu\IeC {\c c}\IeC {\~a}o, o tempo foi de 1569,49 segundos.}}{26}{Esta figura mostra a execução do software desenvolvido. Ao final da execução, o software exibe o tempo levado para calcular a DFT. Nesta execução, o tempo foi de 1569,49 segundos}{figure.4.4}{}}
\@writefile{lof}{\contentsline {figure}{\numberline {5}{\ignorespaces Esta figura mostra a execu\IeC {\c c}\IeC {\~a}o do software desenvolvido. Cada uma das 4 threads recebe um trecho do sinal, e calcula a IDFT para este intervalo. Ao final, estes valores s\IeC {\~a}o concatenados, transformando-se em um sinal do mesmo tamanho do sinal de entrada.}}{27}{figure.4.5}}
\newlabel{fig:execucao_idft}{{\M@TitleReference {5}{Esta figura mostra a execu\IeC {\c c}\IeC {\~a}o do software desenvolvido. Cada uma das 4 threads recebe um trecho do sinal, e calcula a IDFT para este intervalo. Ao final, estes valores s\IeC {\~a}o concatenados, transformando-se em um sinal do mesmo tamanho do sinal de entrada.}}{27}{Esta figura mostra a execução do software desenvolvido. Cada uma das 4 threads recebe um trecho do sinal, e calcula a IDFT para este intervalo. Ao final, estes valores são concatenados, transformando-se em um sinal do mesmo tamanho do sinal de entrada}{figure.4.5}{}}
\@writefile{toc}{\contentsline {subsection}{\numberline {4.3.1}A Inversa da Transformada Discreta de Fourier}{27}{subsection.4.3.1}}
\@writefile{lof}{\contentsline {figure}{\numberline {6}{\ignorespaces Nesta figura, \IeC {\'e} exibido o tempo de execu\IeC {\c c}\IeC {\~a}o da IDFT de um sinal de aproximadamente 113 mil amostras, utilizando 4 threads.}}{28}{figure.4.6}}
\newlabel{fig:tempo_execucao_idft}{{\M@TitleReference {6}{Nesta figura, \IeC {\'e} exibido o tempo de execu\IeC {\c c}\IeC {\~a}o da IDFT de um sinal de aproximadamente 113 mil amostras, utilizando 4 threads.}}{28}{Nesta figura, é exibido o tempo de execução da IDFT de um sinal de aproximadamente 113 mil amostras, utilizando 4 threads}{figure.4.6}{}}
\BKM@entry{id=26,dest={636861707465722E35},srcline={686},srcfile={747265696E616D656E746F2E746578}}{436F6E636C75735C3334336F}
\abx@aux@segm{0}{0}{goswami}
\abx@aux@segm{0}{0}{bhakre}
\abx@aux@segm{0}{0}{terrazas}
\abx@aux@segm{0}{0}{arritmia}
\@writefile{toc}{\setlength  {\cftchapterindent }{0em} \setlength  {\cftchapternumwidth }{\cftlastnumwidth }}
\@writefile{toc}{\contentsline {chapter}{\chapternumberline {5}\MakeTextUppercase  {Conclus\IeC {\~a}o}}{29}{chapter.5}}
\BKM@entry{id=27,dest={73656374696F6E2A2E35},srcline={710},srcfile={747265696E616D656E746F2E746578}}{4269626C696F677261666961}
\@writefile{toc}{\setlength  {\cftchapterindent }{\cftlastnumwidth } \setlength  {\cftchapternumwidth }{2em}}
\@writefile{toc}{\contentsline {chapter}{Bibliografia}{31}{section*.5}}
\newlabel{LastPage}{{}{33}{}{page.33}{}}
\xdef\lastpage@lastpage{33}
\xdef\lastpage@lastpageHy{33}
\abx@aux@refcontextdefaultsdone
\abx@aux@defaultrefcontext{0}{lung_diseases}{nty/global/}
\abx@aux@defaultrefcontext{0}{energia_eletro}{nty/global/}
\abx@aux@defaultrefcontext{0}{bhakre}{nty/global/}
\abx@aux@defaultrefcontext{0}{zcr_iris_menos_lento}{nty/global/}
\abx@aux@defaultrefcontext{0}{bussab_estatistica}{nty/global/}
\abx@aux@defaultrefcontext{0}{image_segmentation}{nty/global/}
\abx@aux@defaultrefcontext{0}{gonzalez_pdi}{nty/global/}
\abx@aux@defaultrefcontext{0}{goswami}{nty/global/}
\abx@aux@defaultrefcontext{0}{random_numbers}{nty/global/}
\abx@aux@defaultrefcontext{0}{bolsa_valores}{nty/global/}
\abx@aux@defaultrefcontext{0}{guido_energia}{nty/global/}
\abx@aux@defaultrefcontext{0}{artigo_zcr_guido}{nty/global/}
\abx@aux@defaultrefcontext{0}{sinais_sistemas}{nty/global/}
\abx@aux@defaultrefcontext{0}{open_cracks_energy}{nty/global/}
\abx@aux@defaultrefcontext{0}{zcr_unvoiced}{nty/global/}
\abx@aux@defaultrefcontext{0}{compara_breast_cancer_3}{nty/global/}
\abx@aux@defaultrefcontext{0}{teorema_convolucao}{nty/global/}
\abx@aux@defaultrefcontext{0}{qiao}{nty/global/}
\abx@aux@defaultrefcontext{0}{bearing_analysis}{nty/global/}
\abx@aux@defaultrefcontext{0}{compara_breast_cancer_1}{nty/global/}
\abx@aux@defaultrefcontext{0}{zcr_iris_lento}{nty/global/}
\abx@aux@defaultrefcontext{0}{zcr_img_olhos}{nty/global/}
\abx@aux@defaultrefcontext{0}{meyer}{nty/global/}
\abx@aux@defaultrefcontext{0}{cpp_thread}{nty/global/}
\abx@aux@defaultrefcontext{0}{zcr_iris_mais_rapido}{nty/global/}
\abx@aux@defaultrefcontext{0}{arritmia}{nty/global/}
\abx@aux@defaultrefcontext{0}{zcr_iris}{nty/global/}
\abx@aux@defaultrefcontext{0}{energia_fisica}{nty/global/}
\abx@aux@defaultrefcontext{0}{terrazas}{nty/global/}
\abx@aux@defaultrefcontext{0}{breast_cancer}{nty/global/}
\abx@aux@defaultrefcontext{0}{compara_breast_cancer_2}{nty/global/}
\memsetcounter{lastsheet}{34}
\memsetcounter{lastpage}{33}
