\relax 
\providecommand\hyper@newdestlabel[2]{}
\providecommand\BKM@entry[2]{}
\providecommand*{\memsetcounter}[2]{}
\providecommand\HyperFirstAtBeginDocument{\AtBeginDocument}
\HyperFirstAtBeginDocument{\ifx\hyper@anchor\@undefined
\global\let\oldcontentsline\contentsline
\gdef\contentsline#1#2#3#4{\oldcontentsline{#1}{#2}{#3}}
\global\let\oldnewlabel\newlabel
\gdef\newlabel#1#2{\newlabelxx{#1}#2}
\gdef\newlabelxx#1#2#3#4#5#6{\oldnewlabel{#1}{{#2}{#3}}}
\AtEndDocument{\ifx\hyper@anchor\@undefined
\let\contentsline\oldcontentsline
\let\newlabel\oldnewlabel
\fi}
\fi}
\global\let\hyper@last\relax 
\gdef\HyperFirstAtBeginDocument#1{#1}
\providecommand*\HyPL@Entry[1]{}
\catcode `"\active 
\abx@aux@sortscheme{nty}
\abx@aux@refcontext{nty/global/}
\HyPL@Entry{0<</S/D>>}
\@writefile{toc}{\changetocdepth  {4}}
\providecommand \oddpage@label [2]{}
\@writefile{toc}{\boolfalse {citerequest}\boolfalse {citetracker}\boolfalse {pagetracker}\boolfalse {backtracker}\relax }
\@writefile{lof}{\boolfalse {citerequest}\boolfalse {citetracker}\boolfalse {pagetracker}\boolfalse {backtracker}\relax }
\@writefile{lot}{\boolfalse {citerequest}\boolfalse {citetracker}\boolfalse {pagetracker}\boolfalse {backtracker}\relax }
\select@language{brazil}
\@writefile{toc}{\defcounter {refsection}{0}\relax }\@writefile{toc}{\select@language{brazil}}
\@writefile{lof}{\defcounter {refsection}{0}\relax }\@writefile{lof}{\select@language{brazil}}
\@writefile{lot}{\defcounter {refsection}{0}\relax }\@writefile{lot}{\select@language{brazil}}
\select@language{brazil}
\@writefile{toc}{\select@language{brazil}}
\@writefile{lof}{\select@language{brazil}}
\@writefile{lot}{\select@language{brazil}}
\BKM@entry{id=1,dest={6368617074657262312E30},srcline={186},srcfile={747265696E616D656E746F322E746578}}{466F6C686120646520726F73746F}
\HyPL@Entry{1<</S/D>>}
\BKM@entry{id=2,dest={6C6F662E30},srcline={202},srcfile={747265696E616D656E746F322E746578}}{4C6973746120646520696C75737472615C3334375C3336356573}
\@writefile{toc}{\setlength  {\cftchapterindent }{\cftlastnumwidth } \setlength  {\cftchapternumwidth }{2em}}
\BKM@entry{id=3,dest={6C6F742E30},srcline={212},srcfile={747265696E616D656E746F322E746578}}{4C6973746120646520746162656C6173}
\@writefile{toc}{\setlength  {\cftchapterindent }{\cftlastnumwidth } \setlength  {\cftchapternumwidth }{2em}}
\BKM@entry{id=4,dest={6368617074657262332E30},srcline={220},srcfile={747265696E616D656E746F322E746578}}{4C69737461206465206162726576696174757261732065207369676C6173}
\@writefile{toc}{\setlength  {\cftchapterindent }{\cftlastnumwidth } \setlength  {\cftchapternumwidth }{2em}}
\BKM@entry{id=5,dest={746F632E30},srcline={245},srcfile={747265696E616D656E746F322E746578}}{53756D5C33343172696F}
\@writefile{toc}{\setlength  {\cftchapterindent }{\cftlastnumwidth } \setlength  {\cftchapternumwidth }{2em}}
\BKM@entry{id=6,dest={636861707465722E31},srcline={260},srcfile={747265696E616D656E746F322E746578}}{496E74726F64755C3334375C3334336F}
\abx@aux@cite{treinamento1}
\abx@aux@segm{0}{0}{treinamento1}
\@writefile{toc}{\setlength  {\cftchapterindent }{0em} \setlength  {\cftchapternumwidth }{\cftlastnumwidth }}
\@writefile{toc}{\contentsline {chapter}{\chapternumberline {1}\MakeTextUppercase  {Introdu\c {c}\~{a}o}}{6}{chapter.1}}
\newlabel{ch:introducao}{{\M@TitleReference {1}{\MakeTextUppercase  {Introdu\c {c}\~{a}o}}}{6}{Introdu\c {c}\~{a}o}{chapter.1}{}}
\BKM@entry{id=7,dest={636861707465722E32},srcline={277},srcfile={747265696E616D656E746F322E746578}}{45737461646F2064612041727465}
\abx@aux@cite{wt_energia}
\abx@aux@segm{0}{0}{wt_energia}
\abx@aux@cite{wt_hvdc}
\abx@aux@segm{0}{0}{wt_hvdc}
\abx@aux@cite{wt_imagensMedicas}
\abx@aux@segm{0}{0}{wt_imagensMedicas}
\abx@aux@cite{wt_ruidoMaritmo}
\abx@aux@segm{0}{0}{wt_ruidoMaritmo}
\abx@aux@cite{wt_danoEstrutural}
\abx@aux@segm{0}{0}{wt_danoEstrutural}
\@writefile{toc}{\setlength  {\cftchapterindent }{0em} \setlength  {\cftchapternumwidth }{\cftlastnumwidth }}
\@writefile{toc}{\contentsline {chapter}{\chapternumberline {2}\MakeTextUppercase  {Estado da Arte}}{7}{chapter.2}}
\newlabel{ch:estado_da_arte}{{\M@TitleReference {2}{\MakeTextUppercase  {Estado da Arte}}}{7}{Estado da Arte}{chapter.2}{}}
\abx@aux@cite{wt_epilepsia}
\abx@aux@segm{0}{0}{wt_epilepsia}
\abx@aux@cite{wt_watermarking}
\abx@aux@segm{0}{0}{wt_watermarking}
\abx@aux@cite{wt_ruidoMR}
\abx@aux@segm{0}{0}{wt_ruidoMR}
\abx@aux@cite{wt_processamentoRuido}
\abx@aux@segm{0}{0}{wt_processamentoRuido}
\abx@aux@cite{wt_mamografia}
\abx@aux@segm{0}{0}{wt_mamografia}
\BKM@entry{id=8,dest={636861707465722E33},srcline={312},srcfile={747265696E616D656E746F322E746578}}{46756E64616D656E74615C3334375C3334336F2054655C33363372696361}
\BKM@entry{id=9,dest={73656374696F6E2E332E31},srcline={317},srcfile={747265696E616D656E746F322E746578}}{4F205072696E635C33353570696F20646120496E63657274657A61206465204865696E73656E62657267}
\BKM@entry{id=10,dest={73656374696F6E2E332E32},srcline={323},srcfile={747265696E616D656E746F322E746578}}{41205472616E73666F726D61646120576176656C6574}
\@writefile{toc}{\setlength  {\cftchapterindent }{0em} \setlength  {\cftchapternumwidth }{\cftlastnumwidth }}
\@writefile{toc}{\contentsline {chapter}{\chapternumberline {3}\MakeTextUppercase  {Fundamenta\IeC {\c c}\IeC {\~a}o Te\IeC {\'o}rica}}{9}{chapter.3}}
\newlabel{ch:fundamentacao_teorica}{{\M@TitleReference {3}{\MakeTextUppercase  {Fundamenta\IeC {\c c}\IeC {\~a}o Te\IeC {\'o}rica}}}{9}{Fundamentação Teórica}{chapter.3}{}}
\@writefile{toc}{\contentsline {section}{\numberline {3.1}O Princ\IeC {\'\i }pio da Incerteza de Heinsenberg}{9}{section.3.1}}
\newlabel{sec:principio_incerteza}{{\M@TitleReference {3.1}{O Princ\IeC {\'\i }pio da Incerteza de Heinsenberg}}{9}{O Princípio da Incerteza de Heinsenberg}{section.3.1}{}}
\@writefile{toc}{\contentsline {section}{\numberline {3.2}A Transformada Wavelet}{9}{section.3.2}}
\abx@aux@cite{gonzalez_pdi}
\abx@aux@segm{0}{0}{gonzalez_pdi}
\BKM@entry{id=11,dest={73756273656374696F6E2E332E322E31},srcline={336},srcfile={747265696E616D656E746F322E746578}}{41205472616E73666F726D61646120576176656C657420436F6E745C3335356E7561}
\BKM@entry{id=12,dest={73756273656374696F6E2E332E322E32},srcline={350},srcfile={747265696E616D656E746F322E746578}}{41205472616E73666F726D61646120576176656C6574204469736372657461}
\abx@aux@cite{mallat_teoria_multirresolucao}
\abx@aux@segm{0}{0}{mallat_teoria_multirresolucao}
\@writefile{toc}{\contentsline {subsection}{\numberline {3.2.1}A Transformada Wavelet Cont\IeC {\'\i }nua}{10}{subsection.3.2.1}}
\newlabel{eq:definicao_cwt}{{3.1}{10}{A Transformada Wavelet Contínua}{equation.3.2.1}{}}
\@writefile{toc}{\contentsline {subsection}{\numberline {3.2.2}A Transformada Wavelet Discreta}{10}{subsection.3.2.2}}
\newlabel{subsec:definicao_dwt}{{\M@TitleReference {3.2.2}{A Transformada Wavelet Discreta}}{10}{A Transformada Wavelet Discreta}{subsection.3.2.2}{}}
\BKM@entry{id=13,dest={73756273756273656374696F6E2E332E322E322E31},srcline={361},srcfile={747265696E616D656E746F322E746578}}{41626F72646167656D2050725C33343174696361}
\BKM@entry{id=14,dest={73756273756273656374696F6E2E332E322E322E32},srcline={384},srcfile={747265696E616D656E746F322E746578}}{41626F72646167656D2054655C33363372696361}
\@writefile{toc}{\contentsline {subsubsection}{\numberline {3.2.2.1}Abordagem Pr\IeC {\'a}tica}{11}{subsubsection.3.2.2.1}}
\newlabel{eq:definicao_scaling}{{3.2}{11}{Abordagem Prática}{equation.3.2.2}{}}
\newlabel{eq:definicao_wavelet}{{3.3}{11}{Abordagem Prática}{equation.3.2.3}{}}
\@writefile{toc}{\contentsline {subsubsection}{\numberline {3.2.2.2}Abordagem Te\IeC {\'o}rica}{11}{subsubsection.3.2.2.2}}
\abx@aux@cite{guido_artigo_teorico}
\abx@aux@segm{0}{0}{guido_artigo_teorico}
\abx@aux@segm{0}{0}{guido_artigo_teorico}
\abx@aux@segm{0}{0}{guido_artigo_teorico}
\abx@aux@segm{0}{0}{guido_artigo_teorico}
\BKM@entry{id=15,dest={73756273656374696F6E2E332E322E33},srcline={399},srcfile={747265696E616D656E746F322E746578}}{412054656F726961206461204D756C7469727265736F6C755C3334375C3334336F}
\abx@aux@segm{0}{0}{mallat_teoria_multirresolucao}
\abx@aux@segm{0}{0}{mallat_teoria_multirresolucao}
\abx@aux@segm{0}{0}{mallat_teoria_multirresolucao}
\BKM@entry{id=16,dest={73756273656374696F6E2E332E322E34},srcline={416},srcfile={747265696E616D656E746F322E746578}}{416C676F7269746D6F206465204D616C6C6174}
\newlabel{eq:definicao_dwt}{{3.4}{12}{Abordagem Teórica}{equation.3.2.4}{}}
\@writefile{toc}{\contentsline {subsection}{\numberline {3.2.3}A Teoria da Multirresolu\IeC {\c c}\IeC {\~a}o}{12}{subsection.3.2.3}}
\newlabel{subsec:teoria_multirresolucao}{{\M@TitleReference {3.2.3}{A Teoria da Multirresolu\IeC {\c c}\IeC {\~a}o}}{12}{A Teoria da Multirresolução}{subsection.3.2.3}{}}
\@writefile{toc}{\contentsline {subsection}{\numberline {3.2.4}Algoritmo de Mallat}{12}{subsection.3.2.4}}
\BKM@entry{id=17,dest={73756273656374696F6E2E332E322E35},srcline={482},srcfile={747265696E616D656E746F322E746578}}{46616D5C3335356C69617320646120445754}
\BKM@entry{id=18,dest={73756273756273656374696F6E2E332E322E352E31},srcline={486},srcfile={747265696E616D656E746F322E746578}}{48616172}
\newlabel{eq:matriz_transformacao}{{3.5}{14}{Algoritmo de Mallat}{equation.3.2.5}{}}
\newlabel{eq:resultado-filtragem-intercalado}{{3.6}{14}{Algoritmo de Mallat}{equation.3.2.6}{}}
\newlabel{eq:resultado-filtragem}{{3.7}{14}{Algoritmo de Mallat}{equation.3.2.7}{}}
\@writefile{toc}{\contentsline {subsection}{\numberline {3.2.5}Fam\IeC {\'\i }lias da DWT}{14}{subsection.3.2.5}}
\newlabel{subsec:familias_dwt}{{\M@TitleReference {3.2.5}{Fam\IeC {\'\i }lias da DWT}}{14}{Famílias da DWT}{subsection.3.2.5}{}}
\@writefile{toc}{\contentsline {subsubsection}{\numberline {3.2.5.1}Haar}{15}{subsubsection.3.2.5.1}}
\providecommand*\caption@xref[2]{\@setref\relax\@undefined{#1}}
\newlabel{fig:funcao-scaling-haar}{{\M@TitleReference {1a}{A fun\IeC {\c c}\IeC {\~a}o \emph  {scaling} $\varphi (x)$\relax }}{15}{A função \emph {scaling} $\varphi (x)$\relax }{figure.caption.4}{}}
\newlabel{sub@fig:funcao-scaling-haar}{{\M@TitleReference {a}{A fun\IeC {\c c}\IeC {\~a}o \emph  {scaling} $\varphi (x)$\relax }}{15}{A função \emph {scaling} $\varphi (x)$\relax }{figure.caption.4}{}}
\newlabel{fig:funcao-wavelet-haar}{{\M@TitleReference {1b}{A fun\IeC {\c c}\IeC {\~a}o \emph  {wavelet} $\psi (x)$\relax }}{15}{A função \emph {wavelet} $\psi (x)$\relax }{figure.caption.4}{}}
\newlabel{sub@fig:funcao-wavelet-haar}{{\M@TitleReference {b}{A fun\IeC {\c c}\IeC {\~a}o \emph  {wavelet} $\psi (x)$\relax }}{15}{A função \emph {wavelet} $\psi (x)$\relax }{figure.caption.4}{}}
\@writefile{lof}{\contentsline {figure}{\numberline {1}{\ignorespaces As fun\IeC {\c c}\IeC {\~o}es da fam\IeC {\'\i }lia de DWT Haar\relax }}{15}{figure.caption.4}}
\newlabel{fig:funcoes-haar}{{\M@TitleReference {1}{As fun\IeC {\c c}\IeC {\~o}es da fam\IeC {\'\i }lia de DWT Haar\relax }}{15}{As funções da família de DWT Haar\relax }{figure.caption.4}{}}
\BKM@entry{id=19,dest={73756273756273656374696F6E2E332E322E352E32},srcline={515},srcfile={747265696E616D656E746F322E746578}}{44617562656368696573206E}
\@writefile{toc}{\contentsline {subsubsection}{\numberline {3.2.5.2}Daubechies $n$}{16}{subsubsection.3.2.5.2}}
\newlabel{fig:funcao-scaling-daubechies}{{\M@TitleReference {2a}{A fun\IeC {\c c}\IeC {\~a}o \emph  {scaling} $\varphi (x)$\relax }}{16}{A função \emph {scaling} $\varphi (x)$\relax }{figure.caption.5}{}}
\newlabel{sub@fig:funcao-scaling-daubechies}{{\M@TitleReference {a}{A fun\IeC {\c c}\IeC {\~a}o \emph  {scaling} $\varphi (x)$\relax }}{16}{A função \emph {scaling} $\varphi (x)$\relax }{figure.caption.5}{}}
\newlabel{fig:funcao-wavelet-daubechies}{{\M@TitleReference {2b}{A fun\IeC {\c c}\IeC {\~a}o \emph  {wavelet} $\psi (x)$\relax }}{16}{A função \emph {wavelet} $\psi (x)$\relax }{figure.caption.5}{}}
\newlabel{sub@fig:funcao-wavelet-daubechies}{{\M@TitleReference {b}{A fun\IeC {\c c}\IeC {\~a}o \emph  {wavelet} $\psi (x)$\relax }}{16}{A função \emph {wavelet} $\psi (x)$\relax }{figure.caption.5}{}}
\@writefile{lof}{\contentsline {figure}{\numberline {2}{\ignorespaces As fun\IeC {\c c}\IeC {\~o}es da fam\IeC {\'\i }lia da DWT de Daubechies 4\relax }}{16}{figure.caption.5}}
\newlabel{fig:funcoes-daubechies}{{\M@TitleReference {2}{As fun\IeC {\c c}\IeC {\~o}es da fam\IeC {\'\i }lia da DWT de Daubechies 4\relax }}{16}{As funções da família da DWT de Daubechies 4\relax }{figure.caption.5}{}}
\BKM@entry{id=20,dest={73756273756273656374696F6E2E332E322E352E33},srcline={569},srcfile={747265696E616D656E746F322E746578}}{53796D6D6C657473}
\@writefile{toc}{\contentsline {subsubsection}{\numberline {3.2.5.3}Symmlets}{17}{subsubsection.3.2.5.3}}
\newlabel{fig:funcao-scaling-symmlets}{{\M@TitleReference {3a}{A fun\IeC {\c c}\IeC {\~a}o \emph  {scaling} $\varphi (x)$\relax }}{17}{A função \emph {scaling} $\varphi (x)$\relax }{figure.caption.6}{}}
\newlabel{sub@fig:funcao-scaling-symmlets}{{\M@TitleReference {a}{A fun\IeC {\c c}\IeC {\~a}o \emph  {scaling} $\varphi (x)$\relax }}{17}{A função \emph {scaling} $\varphi (x)$\relax }{figure.caption.6}{}}
\newlabel{fig:funcao-wavelet-symmlets}{{\M@TitleReference {3b}{A fun\IeC {\c c}\IeC {\~a}o \emph  {wavelet} $\psi (x)$\relax }}{17}{A função \emph {wavelet} $\psi (x)$\relax }{figure.caption.6}{}}
\newlabel{sub@fig:funcao-wavelet-symmlets}{{\M@TitleReference {b}{A fun\IeC {\c c}\IeC {\~a}o \emph  {wavelet} $\psi (x)$\relax }}{17}{A função \emph {wavelet} $\psi (x)$\relax }{figure.caption.6}{}}
\@writefile{lof}{\contentsline {figure}{\numberline {3}{\ignorespaces As fun\IeC {\c c}\IeC {\~o}es da fam\IeC {\'\i }lia da DWT Symmlets 4\relax }}{17}{figure.caption.6}}
\newlabel{fig:funcoes-symmlets}{{\M@TitleReference {3}{As fun\IeC {\c c}\IeC {\~o}es da fam\IeC {\'\i }lia da DWT Symmlets 4\relax }}{17}{As funções da família da DWT Symmlets 4\relax }{figure.caption.6}{}}
\BKM@entry{id=21,dest={73756273756273656374696F6E2E332E322E352E34},srcline={623},srcfile={747265696E616D656E746F322E746578}}{436F69666C657473}
\@writefile{toc}{\contentsline {subsubsection}{\numberline {3.2.5.4}Coiflets}{18}{subsubsection.3.2.5.4}}
\newlabel{fig:funcao-scaling-coiflets}{{\M@TitleReference {4a}{A fun\IeC {\c c}\IeC {\~a}o \emph  {scaling} $\varphi (x)$\relax }}{18}{A função \emph {scaling} $\varphi (x)$\relax }{figure.caption.7}{}}
\newlabel{sub@fig:funcao-scaling-coiflets}{{\M@TitleReference {a}{A fun\IeC {\c c}\IeC {\~a}o \emph  {scaling} $\varphi (x)$\relax }}{18}{A função \emph {scaling} $\varphi (x)$\relax }{figure.caption.7}{}}
\newlabel{fig:funcao-wavelet-coiflets}{{\M@TitleReference {4b}{A fun\IeC {\c c}\IeC {\~a}o \emph  {wavelet} $\psi (x)$\relax }}{18}{A função \emph {wavelet} $\psi (x)$\relax }{figure.caption.7}{}}
\newlabel{sub@fig:funcao-wavelet-coiflets}{{\M@TitleReference {b}{A fun\IeC {\c c}\IeC {\~a}o \emph  {wavelet} $\psi (x)$\relax }}{18}{A função \emph {wavelet} $\psi (x)$\relax }{figure.caption.7}{}}
\@writefile{lof}{\contentsline {figure}{\numberline {4}{\ignorespaces As fun\IeC {\c c}\IeC {\~o}es da fam\IeC {\'\i }lia da DWT Coiflets utilizando filtros FIR de suporte 12\relax }}{18}{figure.caption.7}}
\newlabel{fig:funcoes-coiflets}{{\M@TitleReference {4}{As fun\IeC {\c c}\IeC {\~o}es da fam\IeC {\'\i }lia da DWT Coiflets utilizando filtros FIR de suporte 12\relax }}{18}{As funções da família da DWT Coiflets utilizando filtros FIR de suporte 12\relax }{figure.caption.7}{}}
\BKM@entry{id=22,dest={73656374696F6E2E332E33},srcline={687},srcfile={747265696E616D656E746F322E746578}}{446973637573735C3334336F206461732046616D5C3335356C69617320445754}
\@writefile{toc}{\contentsline {section}{\numberline {3.3}Discuss\IeC {\~a}o das Fam\IeC {\'\i }lias DWT}{19}{section.3.3}}
\@writefile{lot}{\contentsline {table}{\numberline {1}{\ignorespaces Compara\IeC {\c c}\IeC {\~a}o entre as fam\IeC {\'\i }lias abordadas neste trabalho\relax }}{19}{table.caption.8}}
\newlabel{table:comparacao-familias-dwt}{{\M@TitleReference {1}{Compara\IeC {\c c}\IeC {\~a}o entre as fam\IeC {\'\i }lias abordadas neste trabalho\relax }}{19}{Comparação entre as famílias abordadas neste trabalho\relax }{table.caption.8}{}}
\BKM@entry{id=23,dest={636861707465722E34},srcline={713},srcfile={747265696E616D656E746F322E746578}}{4D5C333531746F646F732041706C696361646F73}
\@writefile{toc}{\setlength  {\cftchapterindent }{0em} \setlength  {\cftchapternumwidth }{\cftlastnumwidth }}
\@writefile{toc}{\contentsline {chapter}{\chapternumberline {4}\MakeTextUppercase  {M\IeC {\'e}todos Aplicados}}{20}{chapter.4}}
\newlabel{ch:metodos-aplicados}{{\M@TitleReference {4}{\MakeTextUppercase  {M\IeC {\'e}todos Aplicados}}}{20}{Métodos Aplicados}{chapter.4}{}}
\@writefile{lof}{\contentsline {figure}{\numberline {5}{\ignorespaces O menu principal do software desenvolvido.\relax }}{20}{figure.caption.9}}
\newlabel{fig:menu-principal-programa}{{\M@TitleReference {5}{O menu principal do software desenvolvido.\relax }}{20}{O menu principal do software desenvolvido.\relax }{figure.caption.9}{}}
\@writefile{lof}{\contentsline {figure}{\numberline {6}{\ignorespaces O sinal fabricado, utilizado para teste do software\relax }}{21}{figure.caption.10}}
\newlabel{fig:grafico_sinal_original}{{\M@TitleReference {6}{O sinal fabricado, utilizado para teste do software\relax }}{21}{O sinal fabricado, utilizado para teste do software\relax }{figure.caption.10}{}}
\@writefile{lof}{\contentsline {figure}{\numberline {7}{\ignorespaces Gr\IeC {\'a}fico, gerado em R, da TW Haar do sinal utilizado.\relax }}{22}{figure.caption.11}}
\newlabel{fig:grafico_haar}{{\M@TitleReference {7}{Gr\IeC {\'a}fico, gerado em R, da TW Haar do sinal utilizado.\relax }}{22}{Gráfico, gerado em R, da TW Haar do sinal utilizado.\relax }{figure.caption.11}{}}
\@writefile{lof}{\contentsline {figure}{\numberline {8}{\ignorespaces Gr\IeC {\'a}fico, gerado em R, da TW Daubechies 4 do sinal utilizado.\relax }}{23}{figure.caption.12}}
\newlabel{fig:grafico_db4}{{\M@TitleReference {8}{Gr\IeC {\'a}fico, gerado em R, da TW Daubechies 4 do sinal utilizado.\relax }}{23}{Gráfico, gerado em R, da TW Daubechies 4 do sinal utilizado.\relax }{figure.caption.12}{}}
\@writefile{lof}{\contentsline {figure}{\numberline {9}{\ignorespaces Compara\IeC {\c c}\IeC {\~a}o entre a TW Haar e Db4. Em vermelho, a transformada de Haar. Em azul, Daubechies 4. As \IeC {\'a}reas em tom leve de roxo deve-se a sobreposi\IeC {\c c}\IeC {\~a}o das linhas vermelha e azul.\relax }}{24}{figure.caption.13}}
\newlabel{fig:grafico_haar_vs_db4}{{\M@TitleReference {9}{Compara\IeC {\c c}\IeC {\~a}o entre a TW Haar e Db4. Em vermelho, a transformada de Haar. Em azul, Daubechies 4. As \IeC {\'a}reas em tom leve de roxo deve-se a sobreposi\IeC {\c c}\IeC {\~a}o das linhas vermelha e azul.\relax }}{24}{Comparação entre a TW Haar e Db4. Em vermelho, a transformada de Haar. Em azul, Daubechies 4. As áreas em tom leve de roxo deve-se a sobreposição das linhas vermelha e azul.\relax }{figure.caption.13}{}}
\@writefile{lof}{\contentsline {figure}{\numberline {10}{\ignorespaces Software em R, desenvolvido na IDE RStudio, uma IDE \emph  {open-source}.\relax }}{24}{figure.caption.14}}
\newlabel{fig:software_em_R}{{\M@TitleReference {10}{Software em R, desenvolvido na IDE RStudio, uma IDE \emph  {open-source}.\relax }}{24}{Software em R, desenvolvido na IDE RStudio, uma IDE \emph {open-source}.\relax }{figure.caption.14}{}}
\BKM@entry{id=24,dest={636861707465722E35},srcline={785},srcfile={747265696E616D656E746F322E746578}}{436F6E636C75735C3334336F}
\@writefile{toc}{\setlength  {\cftchapterindent }{0em} \setlength  {\cftchapternumwidth }{\cftlastnumwidth }}
\@writefile{toc}{\contentsline {chapter}{\chapternumberline {5}\MakeTextUppercase  {Conclus\IeC {\~a}o}}{25}{chapter.5}}
\BKM@entry{id=25,dest={73656374696F6E2A2E3136},srcline={813},srcfile={747265696E616D656E746F322E746578}}{4269626C696F677261666961}
\@writefile{toc}{\setlength  {\cftchapterindent }{\cftlastnumwidth } \setlength  {\cftchapternumwidth }{2em}}
\@writefile{toc}{\contentsline {chapter}{Bibliografia}{27}{section*.16}}
\newlabel{LastPage}{{}{28}{}{page.28}{}}
\xdef\lastpage@lastpage{28}
\xdef\lastpage@lastpageHy{28}
\abx@aux@refcontextdefaultsdone
\abx@aux@defaultrefcontext{0}{wt_ruidoMaritmo}{nty/global/}
\abx@aux@defaultrefcontext{0}{guido_artigo_teorico}{nty/global/}
\abx@aux@defaultrefcontext{0}{wt_epilepsia}{nty/global/}
\abx@aux@defaultrefcontext{0}{wt_energia}{nty/global/}
\abx@aux@defaultrefcontext{0}{treinamento1}{nty/global/}
\abx@aux@defaultrefcontext{0}{gonzalez_pdi}{nty/global/}
\abx@aux@defaultrefcontext{0}{wt_mamografia}{nty/global/}
\abx@aux@defaultrefcontext{0}{wt_processamentoRuido}{nty/global/}
\abx@aux@defaultrefcontext{0}{wt_ruidoMR}{nty/global/}
\abx@aux@defaultrefcontext{0}{wt_danoEstrutural}{nty/global/}
\abx@aux@defaultrefcontext{0}{wt_imagensMedicas}{nty/global/}
\abx@aux@defaultrefcontext{0}{wt_watermarking}{nty/global/}
\abx@aux@defaultrefcontext{0}{mallat_teoria_multirresolucao}{nty/global/}
\abx@aux@defaultrefcontext{0}{wt_hvdc}{nty/global/}
\memsetcounter{lastsheet}{29}
\memsetcounter{lastpage}{28}
